<?xml version="1.0" encoding="UTF-8"?>
<svg width="48px" height="24px" viewBox="0 0 48 24" version="1.1" xmlns="http://www.w3.org/2000/svg" xmlns:xlink="http://www.w3.org/1999/xlink">
    <!-- Generator: Sketch 62 (91390) - https://sketch.com -->
    <title>arc</title>
    <desc>Created with Sketch.</desc>
    <g id="Gauges" stroke="none" stroke-width="1" fill="none" fill-rule="evenodd">
        <g id="ico__PGR-S--LG__VeryBullish--light" transform="translate(-6.000000, -2.000000)" fill="#24A300">
            <g id="Group" transform="translate(0.000000, 2.000000)">
                <path d="M29.9999063,0 C41.1829906,0 50.5796389,7.64858005 53.2438984,17.9999931 L43.2686118,18.0003393 C40.9693692,12.9768907 35.8773837,9.48376517 29.9999063,9.48376517 C21.9828828,9.48376517 15.4837281,15.9829452 15.4837281,24 L15.4837281,24 L6,24 C6,10.7450686 16.7452141,0 29.9999063,0 Z M53.2812877,18.1472039 C53.7507296,20.020513 54,21.9811443 54,24 L54,24 L44.875,24 Z" id="arc"></path>
            </g>
        </g>
    </g>
</svg>