<?xml version="1.0" encoding="UTF-8"?>
<svg width="78px" height="38px" viewBox="0 0 78 38" version="1.1" xmlns="http://www.w3.org/2000/svg" xmlns:xlink="http://www.w3.org/1999/xlink">
    <!-- Generator: Sketch 62 (91390) - https://sketch.com -->
    <title>GAUGE</title>
    <desc>Created with Sketch.</desc>
    <defs>
        <linearGradient x1="100%" y1="99.9999642%" x2="0%" y2="99.9999642%" id="linearGradient-1">
            <stop stop-color="#459800" offset="0%"></stop>
            <stop stop-color="#5ED000" offset="26.1753974%"></stop>
            <stop stop-color="#FFBE00" offset="50.5422477%"></stop>
            <stop stop-color="#EE5700" offset="73.4575572%"></stop>
            <stop stop-color="#E00000" offset="100%"></stop>
        </linearGradient>
        <linearGradient x1="100%" y1="100%" x2="0%" y2="100%" id="linearGradient-2">
            <stop stop-color="#FFB437" offset="0%"></stop>
            <stop stop-color="#E38D00" offset="100%"></stop>
        </linearGradient>
        <path d="M37.6151903,0.0241321513 L32.6075161,14.6229832 C21.9133839,17.4095945 14.1726102,26.8948767 13.7323055,38 L13.7323055,38 L0.0125707377,38 C0.531443649,17.3837397 17.0488921,0.741936005 37.6151903,0.0241321513 L37.6151903,0.0241321513 Z M73.0231301,19.9219941 C76.0395649,25.2898997 77.8224266,31.4439947 77.9874292,38 L77.9874292,38 L64.1741605,38 C63.9948296,33.4374498 62.5937177,29.1509771 60.2667758,25.4901065 C61.2853418,25.8213976 62.3722296,26 63.5001971,26 C67.6775157,26 71.2914836,23.5501244 72.9813854,20.0111105 Z M40.4282393,0.025661261 C47.3989091,0.276569642 53.90325,2.35689163 59.4755759,5.80094921 C55.6762337,7.38312693 53,11.133764 53,15.4998029 C53,16.4725271 53.1328231,17.4147012 53.381292,18.309148 C50.9980507,16.6473865 48.3038577,15.3848137 45.3872066,14.6231847 L45.3872066,14.6231847 Z" id="path-3"></path>
    </defs>
    <g id="Gauges" stroke="none" stroke-width="1" fill="none" fill-rule="evenodd">
        <g id="ico__PGR-S--XL__NeutralPlus--light" transform="translate(-11.000000, -2.000000)">
            <g id="GAUGE" transform="translate(11.000000, 2.000000)">
                <path d="M39.0190997,2.09539414 L43.8467756,16.3064401 L44.3845759,16.4342699 C54.4287361,18.821676 61.7292062,27.6288875 62.1724366,37.9994364 L59.1177021,37.9997945 C58.2043086,27.2734364 49.9896854,18.8795322 38.9998637,18.8795322 C28.0100419,18.8795322 19.8682763,27.2734364 18.9633099,37.9997945 L15.7340471,37.9998106 C16.1807625,27.6432393 23.5308481,18.8266205 33.6078752,16.4348783 L33.6078752,16.4348783 L34.1440449,16.3076206 L39.0190997,2.09539414 Z" id="Combined-Shape" fill="#4A5164"></path>
                <g id="Path">
                    <use fill="url(#linearGradient-1)" xlink:href="#path-3"></use>
                    <use fill="url(#linearGradient-2)" xlink:href="#path-3"></use>
                </g>
                <path d="M63.5001971,7 C68.1868348,7 72,10.8131652 72,15.4998029 C72,20.1868348 68.1868348,24 63.5001971,24 C58.8131652,24 55,20.1868348 55,15.4998029 C55,10.8131652 58.8131652,7 63.5001971,7 Z M64.564052,9.38155302 L62.435948,9.38155302 L62.435948,14.435948 L57.381553,14.435948 L57.381553,16.564052 L62.435948,16.564052 L62.435948,21.618447 L64.564052,21.618447 L64.564052,16.564052 L69.618447,16.564052 L69.618447,14.435948 L64.564052,14.435948 L64.564052,9.38155302 Z" id="Fill-6" fill="#24A300" fill-rule="nonzero"></path>
            </g>
        </g>
    </g>
</svg>