<?xml version="1.0" encoding="UTF-8"?>
<svg width="48px" height="24px" viewBox="0 0 48 24" version="1.1" xmlns="http://www.w3.org/2000/svg" xmlns:xlink="http://www.w3.org/1999/xlink">
    <!-- Generator: Sketch 62 (91390) - https://sketch.com -->
    <title>arc</title>
    <desc>Created with Sketch.</desc>
    <g id="Gauges" stroke="none" stroke-width="1" fill="none" fill-rule="evenodd">
        <g id="ico__PGR-S--LG__Bullish--light" transform="translate(-6.000000, -2.000000)" fill="#7ED321">
            <g id="Group" transform="translate(6.000000, 2.000000)">
                <path d="M38.8461592,5.14159027 C44.4210189,9.53639216 48,16.3502076 48,24 L48,24 L38.5724962,24 C38.5724962,20.4048311 37.2541814,17.1149046 35.076942,14.5794378 Z M23.9999063,0 C29.5242859,0 34.6127209,1.86648562 38.6689788,5.00324907 L29.8647881,10.7131566 C28.0681383,9.92270587 26.0833741,9.48376517 23.9999063,9.48376517 C15.9828828,9.48376517 9.48372814,15.9829452 9.48372814,24 L9.48372814,24 L0,24 C0,10.7450686 10.7452141,0 23.9999063,0 Z" id="arc"></path>
            </g>
        </g>
    </g>
</svg>