<?xml version="1.0" encoding="UTF-8"?>
<svg width="512px" height="256px" viewBox="0 0 512 256" version="1.1" xmlns="http://www.w3.org/2000/svg" xmlns:xlink="http://www.w3.org/1999/xlink">
    <!-- Generator: Sketch 62 (91390) - https://sketch.com -->
    <title>Group</title>
    <desc>Created with Sketch.</desc>
    <g id="Premium" stroke="none" stroke-width="1" fill="none" fill-rule="evenodd">
        <g id="favicon" transform="translate(0.000000, -112.000000)" fill-rule="nonzero">
            <g id="Group" transform="translate(0.000000, 112.000000)">
                <path d="M392,143.326744 C418.395424,174.911867 432.883062,214.79232 432.931565,256 L512,256 C512.112815,191.939119 488.182371,130.180753 444.964687,83 L392,143.326744 Z" id="Path" fill="#37B2E2"></path>
                <path d="M256.305493,0 C188.325181,-0.0125021561 123.125542,26.9547881 75.0562014,74.9668146 C26.9868613,122.978841 -0.0126207601,188.100742 0,256 L79.4232981,256 C79.7189707,187.838446 119.246099,125.926702 180.995532,96.9063764 C242.744965,67.8860504 315.700763,76.9342934 368.468886,120.157503 L429,66.9232138 C381.845623,23.8204769 320.22588,-0.0585948034 256.305493,0 Z" id="Path" fill="#37B2E2"></path>
                <path d="M392,143.037992 C384.892393,134.661623 377.028887,126.950114 368.50792,120 L290.21687,188.687348 C279.762845,183.296487 268.159558,180.483922 256.384462,180.486581 C214.63343,180.695483 180.920835,214.465811 181,256 L210.925142,256 C210.870937,230.998301 231.063251,210.615056 256.193857,210.303242 C258.977371,210.303551 261.754243,210.573443 264.485179,211.109097 C282.495985,214.682261 296.63048,228.594005 300.414243,246.471941 C301.092021,249.588627 301.459124,252.764218 301.510222,255.952597 L331.435225,255.952597 C331.349565,243.835707 328.377448,231.911642 322.762693,221.158592 L392,143.037992 Z" id="Path" fill="#A7D9F0"></path>
            </g>
        </g>
    </g>
</svg>