<?xml version="1.0" encoding="UTF-8"?>
<svg width="78px" height="38px" viewBox="0 0 78 38" version="1.1" xmlns="http://www.w3.org/2000/svg" xmlns:xlink="http://www.w3.org/1999/xlink">
    <!-- Generator: Sketch 62 (91390) - https://sketch.com -->
    <title>Arc-Large_verybearish</title>
    <desc>Created with Sketch.</desc>
    <defs>
        <linearGradient x1="2.52099939%" y1="100%" x2="100%" y2="100%" id="linearGradient-1">
            <stop stop-color="#EF122D" offset="0%"></stop>
            <stop stop-color="#D0021B" offset="100%"></stop>
        </linearGradient>
    </defs>
    <g id="Gauges" stroke="none" stroke-width="1" fill="none" fill-rule="evenodd">
        <g id="ico__PGR-S--XL__VeryBearish--dark" transform="translate(-11.000000, -2.000000)">
            <g id="Arc-Large_verybearish" transform="translate(11.000000, 2.000000)">
                <g id="GAUGE" transform="translate(39.000000, 19.000000) scale(-1, 1) translate(-39.000000, -19.000000) ">
                    <path d="M38.9998438,15.8062753 C48.1938884,15.8062753 56.4456301,21.2035778 60.2048229,29.4162038 L60.2048229,29.4162038 L60.4720458,30 L74.9663832,29.9992753 L63.4773832,37.9992753 L59.1177021,37.9997945 C58.214201,27.3896076 50.1667649,19.0616251 39.355955,18.8824783 L38.9998637,18.8795322 C28.0100419,18.8795322 19.8682763,27.2734364 18.9633099,37.9997945 L15.8274031,37.9995306 C16.3513418,25.654167 26.5256203,15.8062753 38.9998438,15.8062753 Z" id="Combined-Shape" fill="#4A5164"></path>
                    <path d="M38.9998406,0 C56.4648128,0 71.6223213,11.5700238 76.4397162,28 L76.4397162,28 L61.7543963,28 C57.5528,19.4108786 48.7666132,13.8062753 38.9998406,13.8062753 C25.416373,13.8062753 14.3427785,24.5495032 13.8175787,38 L13.8175787,38 L0,38 C0.530640856,16.9229904 17.788358,0 38.9998406,0 Z M77.1722985,30.9097233 C77.6613643,33.2275158 77.9395507,35.5977453 78,38 L78,38 L66.9866698,38 Z" id="Path" fill="url(#linearGradient-1)" fill-rule="nonzero"></path>
                </g>
            </g>
        </g>
    </g>
</svg>