<?xml version="1.0" encoding="UTF-8"?>
<svg width="24px" height="16px" viewBox="0 0 24 16" version="1.1" xmlns="http://www.w3.org/2000/svg" xmlns:xlink="http://www.w3.org/1999/xlink">
    <!-- Generator: Sketch 51.2 (57519) - http://www.bohemiancoding.com/sketch -->
    <title>ico__PGR-S--SM__Bearish--dark</title>
    <desc>Created with Sketch.</desc>
    <defs></defs>
    <g id="ico__PGR-S--SM__Bearish--dark" stroke="none" stroke-width="1" fill="none" fill-rule="evenodd">
        <path d="M19.3345011,4.50163358 L14.9324164,7.3565891 C14.0340855,6.96135655 13.0416956,6.74188258 11.9999531,6.74188258 C7.99144141,6.74188258 4.74186407,9.99147261 4.74186407,14 L0,14 C0,7.37253432 5.37260705,2 11.9999531,2 C14.7621483,2 17.3063703,2.9332464 19.3345011,4.50163358 Z M19.4230113,4.57074127 C22.2104802,6.76814041 24,10.1750726 24,14 L19.2862481,14 C19.2862481,12.202275 18.6269876,10.557195 17.5382155,9.28942143 L19.4230113,4.57074127 Z" id="arc" fill="#D0021B" transform="translate(12.000000, 8.000000) scale(-1, 1) translate(-12.000000, -8.000000) "></path>
    </g>
</svg>