<?xml version="1.0" encoding="UTF-8"?>
<svg width="95px" height="46px" viewBox="0 0 95 46" version="1.1" xmlns="http://www.w3.org/2000/svg" xmlns:xlink="http://www.w3.org/1999/xlink">
    <!-- Generator: Sketch 62 (91390) - https://sketch.com -->
    <title>Arc-Large_verybearish</title>
    <desc>Created with Sketch.</desc>
    <defs>
        <linearGradient x1="0%" y1="99.9999642%" x2="100%" y2="99.9999642%" id="linearGradient-1">
            <stop stop-color="#459800" offset="0%"></stop>
            <stop stop-color="#5ED000" offset="26.1753974%"></stop>
            <stop stop-color="#FFBE00" offset="50.5422477%"></stop>
            <stop stop-color="#EE5700" offset="73.4575572%"></stop>
            <stop stop-color="#E00000" offset="100%"></stop>
        </linearGradient>
    </defs>
    <g id="Gauges" stroke="none" stroke-width="1" fill="none" fill-rule="evenodd">
        <g id="ico__PGR-S--XL__VeryBearish--dark" transform="translate(-2.000000, -3.000000)">
            <g id="Arc-Large_verybearish" transform="translate(2.000000, 3.000000)">
                <g id="GAUGE" transform="translate(47.210526, 23.000000) scale(-1, 1) translate(-47.210526, -23.000000) ">
                    <path d="M47.2103373,19.1339122 C58.3399701,19.1339122 68.3289207,25.6674889 72.8795224,35.6090888 L72.8795224,35.6090888 L73.2030029,36.3157895 L90.7494639,36.3149122 L76.8414639,45.9999122 L71.563558,46.000032 C70.4697247,33.153175 60.7240176,23.0701853 47.6328215,22.8575958 L47.2103613,22.8541706 C33.906797,22.8541706 24.0509293,33.0153589 22.955562,46.000032 L19.1594571,46.0001594 C19.7933298,31.0554312 32.1097163,19.1339122 47.2103373,19.1339122 Z" id="Combined-Shape" fill="#FFFFFF"></path>
                    <path d="M47.2103333,0 C68.3521418,0 86.7007048,14.0058182 92.532288,33.8947368 L92.532288,33.8947368 L74.7553219,33.8947368 C69.6691789,23.4973794 59.0332686,16.7128596 47.2103333,16.7128596 C30.7671883,16.7128596 17.3623108,29.7178196 16.7265426,46 L16.7265426,46 L0,46 C0.642354721,20.4857252 21.5332754,0 47.2103333,0 Z M93.4190982,37.4170335 C94.0111252,40.2227823 94.3478772,43.0920075 94.4210526,46 L94.4210526,46 L81.0891266,46 Z" id="Path" fill="url(#linearGradient-1)" fill-rule="nonzero"></path>
                </g>
            </g>
        </g>
    </g>
</svg>