<?xml version="1.0" encoding="UTF-8"?>
<svg width="24px" height="16px" viewBox="0 0 24 16" version="1.1" xmlns="http://www.w3.org/2000/svg" xmlns:xlink="http://www.w3.org/1999/xlink">
    <!-- Generator: Sketch 51.3 (57544) - http://www.bohemiancoding.com/sketch -->
    <title>ico__PGR-S--SM__None--dark</title>
    <desc>Created with Sketch.</desc>
    <defs></defs>
    <g id="ico__PGR-S--SM__None--dark" stroke="none" stroke-width="1" fill="none" fill-rule="evenodd">
        <path d="M24,14 L19.2581359,14 C19.2581359,9.99147261 16.0085586,6.74188258 12.0000469,6.74188258 C7.99153512,6.74188258 4.71375192,9.99147261 4.71375192,14 L0,14 C0,7.37253432 5.37260705,2 12.0000469,2 C18.6273929,2 24,7.37253432 24,14 Z" id="arc" fill="#B8B8B8"></path>
    </g>
</svg>