<?xml version="1.0" encoding="UTF-8"?>
<svg width="24px" height="16px" viewBox="0 0 24 16" version="1.1" xmlns="http://www.w3.org/2000/svg" xmlns:xlink="http://www.w3.org/1999/xlink">
    <!-- Generator: Sketch 51.2 (57519) - http://www.bohemiancoding.com/sketch -->
    <title>ico__PGR-S--SM__VeryBullish--dark</title>
    <desc>Created with Sketch.</desc>
    <defs></defs>
    <g id="ico__PGR-S--SM__VeryBullish--dark" stroke="none" stroke-width="1" fill="none" fill-rule="evenodd">
        <path d="M23.6219501,11 L18.6342283,11 C17.48457,8.48836671 14.9386257,6.74188258 11.9999531,6.74188258 C7.99144141,6.74188258 4.74186407,9.99147261 4.74186407,14 L0,14 C0,7.37253432 5.37260705,2 11.9999531,2 C17.5914965,2 22.2898215,5.82429171 23.6219501,11 Z M23.6405596,11.0732656 C23.875335,12.0100219 24,12.9904513 24,14 L19.4374763,14 L23.6405596,11.0732656 Z" id="arc" fill="#24A300"></path>
    </g>
</svg>