<?xml version="1.0" encoding="UTF-8"?>
<svg width="78px" height="38px" viewBox="0 0 78 38" version="1.1" xmlns="http://www.w3.org/2000/svg" xmlns:xlink="http://www.w3.org/1999/xlink">
    <!-- Generator: Sketch 62 (91390) - https://sketch.com -->
    <title>Arc-Large_Bearish</title>
    <desc>Created with Sketch.</desc>
    <defs>
        <linearGradient x1="0%" y1="100%" x2="100%" y2="100%" id="linearGradient-1">
            <stop stop-color="#FF6E37" offset="0%"></stop>
            <stop stop-color="#EA4100" offset="100%"></stop>
        </linearGradient>
    </defs>
    <g id="Gauges" stroke="none" stroke-width="1" fill="none" fill-rule="evenodd">
        <g id="ico__PGR-S--XL__Bearish--light" transform="translate(-11.000000, -2.000000)">
            <g id="Arc-Large_Bearish" transform="translate(11.000000, 2.000000)">
                <path d="M16.9490299,9.99977677 L29.1339676,17.9026917 L29.6279853,17.6853426 C32.5588681,16.3958652 35.7341627,15.7209951 39.0001562,15.7209951 C51.4743797,15.7209951 61.6486582,25.5688868 62.1725969,37.9142504 L59.1177021,37.9145143 C58.2043086,27.1881562 49.9896854,18.794252 38.9998637,18.794252 C28.0100419,18.794252 19.8682763,27.1881562 18.9633099,37.9145143 L15.7339314,37.9142613 C15.9578421,32.6943156 17.9293633,27.7866732 21.2979142,23.8643098 L21.6927178,23.4045978 L16.4841734,10.3645106 C16.638342,10.2418455 16.7932999,10.1202618 16.9490299,9.99977677 Z" id="Combined-Shape" fill="#4A5164"></path>
                <path d="M39.1450319,0 C47.4453966,0 55.3495083,2.57822805 61.9352573,7.2819147 L61.9352573,7.2819147 L48.8618924,15.7264264 C45.8062798,14.4649779 42.518681,13.8062753 39.1450319,13.8062753 C25.5109948,13.8062753 14.3961748,24.5495032 13.8690197,38 L13.8690197,38 L3.55271368e-15,38 C0.532616364,16.9229904 17.8545817,0 39.1450319,0 Z M64.1233548,9 C72.6042513,16.1894262 77.7138736,26.6561322 78,38 L78,38 L64.2249106,38 C64.0070172,32.462476 61.9967662,27.2394105 58.5453444,23.0077344 L58.5453444,23.0077344 Z" id="Path" fill="url(#linearGradient-1)" fill-rule="nonzero" transform="translate(39.000000, 19.000000) scale(-1, 1) translate(-39.000000, -19.000000) "></path>
            </g>
        </g>
    </g>
</svg>