<?xml version="1.0" encoding="UTF-8"?>
<svg width="128px" height="128px" viewBox="0 0 128 128" version="1.1" xmlns="http://www.w3.org/2000/svg" xmlns:xlink="http://www.w3.org/1999/xlink">
    <!-- Generator: Sketch 62 (91390) - https://sketch.com -->
    <title>icon_industry--Aerospace</title>
    <desc>Created with Sketch.</desc>
    <g id="icon_industry--Aerospace" stroke="none" stroke-width="1" fill="none" fill-rule="evenodd">
        <path d="M124.25,0 C126.322266,0 128,1.6777345 128,3.75 L128,3.75 L128,124.25 C128,126.302734 126.317383,128 124.25,128 L124.25,128 L3.75,128 C1.6777345,128 1.42108547e-14,126.322266 1.42108547e-14,124.25 C1.42108547e-14,122.177734 1.6777345,120.5 3.75,120.5 L3.75,120.5 L15.5751953,120.5 C13.625,120.5 11.75,119 11.9003905,115.849609 L11.9003905,115.849609 L19.4522288,85.6417079 C19.7260026,84.6814237 20.4400391,83.8644531 21.350586,83.375 L21.350586,83.375 L21.5,83.2998048 C23.225586,94.1748048 25.5498048,103.174805 26.975586,111.424805 C27.125,112.09961 27.2753905,112.699219 27.5,113.299805 L27.5,113.299805 L17.600586,119.899414 C17,120.274414 16.3251953,120.5 15.725586,120.5 L15.725586,120.5 L49.25,120.5 L49.25,113 L56.75,113 L56.75,120.5 L90.3496095,120.5 C89.6748048,120.5 89,120.274414 88.399414,119.899414 L88.399414,119.899414 L78.5,113.299805 C78.7246095,112.625 78.9501953,111.950195 79.0996095,111.274414 C80.5996095,102.575195 82.8496095,93.875 84.5,83.2998048 L84.5,83.2998048 L84.649414,83.375 C85.625,83.9003905 86.375,84.7998047 86.5996095,85.8496095 L94.0996095,115.849609 C94.4003905,119 92.4501953,120.5 90.5,120.5 L90.5,120.5 L98,120.5 L98,3.75 C98,1.6777345 99.6777345,0 101.75,0 L101.75,0 Z M105.5,110.802734 L105.5,120.5 L115.197266,120.5 L105.5,110.802734 Z M120.5,93.756836 L107.634766,102.332031 L120.5,115.197266 L120.5,93.756836 Z M74.0751953,98 L71.6748048,110 C71.2998048,111.724609 69.7998048,113 68,113 L68,113 L56.75,113 L56.75,98 L74.0751953,98 Z M49.25,98 L49.25,113 L38,113 C36.2001952,113 34.7001952,111.724609 34.3251952,110 L34.3251952,110 L31.9248047,98 L49.25,98 Z M105.5,78.756836 L105.5,94.743164 L117.490235,86.75 L105.5,78.756836 Z M75.0498048,30 C77.8251953,37.649414 79.25,46.3251953 79.25,54.7246095 C79.25,66.274414 78.125,77.8251953 75.7998048,89.2246095 L75.7998048,89.2246095 L75.5751953,90.5 L56.75,90.5 L56.75,86.75 C56.75,84.649414 55.100586,83 53,83 C50.899414,83 49.25,84.649414 49.25,86.75 L49.25,86.75 L49.25,90.5 L30.4248048,90.5 L30.2001952,89.2246095 C27.875,77.8251953 26.75,66.274414 26.75,54.7246095 C26.75,46.3251953 28.1748047,37.6503905 30.9501952,30 L30.9501952,30 Z M120.5,63.756836 L108.509766,71.75 L120.5,79.743164 L120.5,63.756836 Z M56.524414,70.5498048 C55.9248048,68.5996095 53.75,67.5498048 51.7998048,68.2246095 C49.850586,68.8251953 48.7998048,71 49.475586,72.9501953 C50.0751953,74.899414 52.25,75.9501953 54.2001953,75.274414 C56.149414,74.6748048 57.2001953,72.5 56.524414,70.5498048 Z M105.5,48.756836 L105.5,64.743164 L117.490235,56.75 L105.5,48.756836 Z M53,38 C46.774414,38 41.75,43.024414 41.75,49.25 C41.75,55.4746095 46.774414,60.5 53,60.5 C59.225586,60.5 64.25,55.4746095 64.25,49.25 C64.25,43.024414 59.225586,38 53,38 Z M53,45.5 C55.100586,45.5 56.75,47.149414 56.75,49.25 C56.75,51.3496095 55.100586,53 53,53 C50.899414,53 49.25,51.3496095 49.25,49.25 C49.25,47.149414 50.899414,45.5 53,45.5 Z M120.5,28.3027345 L107.634766,41.1679688 L120.5,49.743164 L120.5,28.3027345 Z M115.197266,23 L105.5,23 L105.5,32.6972655 L115.197266,23 Z M50.375,1.125 C51.7998047,-0.375 54.2001952,-0.375 55.625,1.125 L55.625,1.125 L58.399414,3.82519525 C63.9501953,9.29980475 68.4501952,15.6748047 71.8251952,22.5 L71.8251952,22.5 L34.1748047,22.5 C37.5498047,15.6748047 42.0498047,9.29980475 47.5996095,3.82519525 L47.5996095,3.82519525 Z M120.5,7.5 L105.5,7.5 L105.5,15.5 L120.5,15.5 L120.5,7.5 Z" id="Combined-Shape" fill="#FFFFFF" fill-rule="nonzero"></path>
    </g>
</svg>