<?xml version="1.0" encoding="UTF-8"?>
<svg width="128px" height="128px" viewBox="0 0 128 128" version="1.1" xmlns="http://www.w3.org/2000/svg" xmlns:xlink="http://www.w3.org/1999/xlink">
    <!-- Generator: Sketch 62 (91390) - https://sketch.com -->
    <title>icon_industry--Road-Rail</title>
    <desc>Created with Sketch.</desc>
    <g id="icon_industry--Road-Rail" stroke="none" stroke-width="1" fill="none" fill-rule="evenodd">
        <path d="M30.4310345,5 C34.3636828,5 37.5517241,8.18804135 37.5517241,12.1206897 L37.5517241,115.87931 C37.5517241,119.811959 34.3636828,123 30.4310345,123 C26.4983862,123 23.3103448,119.811959 23.3103448,115.87931 L23.3103448,12.1206897 C23.3103448,8.18804135 26.4983862,5 30.4310345,5 Z M97.5689655,5 C101.501614,5 104.689655,8.18804135 104.689655,12.1206897 L104.689655,115.87931 C104.689655,119.811959 101.501614,123 97.5689655,123 C93.6363172,123 90.4482759,119.811959 90.4482759,115.87931 L90.4482759,12.1206897 C90.4482759,8.18804135 93.6363172,5 97.5689655,5 Z M86.3793103,92.4827586 L86.3793103,102.655172 L80.2758621,102.655172 C79.1522484,102.655172 78.2413793,103.566041 78.2413793,104.689655 C78.2413793,105.813269 79.1522484,106.724138 80.2758621,106.724138 L86.3793103,106.724138 L86.3793103,112.827586 L41.6206897,112.827586 L41.6206897,106.724138 L47.7241379,106.724138 C48.8477516,106.724138 49.7586207,105.813269 49.7586207,104.689655 C49.7586207,103.566041 48.8477516,102.655172 47.7241379,102.655172 L41.6206897,102.655172 L41.6206897,92.4827586 L86.3793103,92.4827586 Z M19.2413793,92.4827586 L19.2413793,112.827586 L7.03448276,112.827586 C5.91086896,112.827586 5,111.916717 5,110.793103 L5,110.793103 L5,94.5172414 C5,93.3936277 5.91086896,92.4827586 7.03448276,92.4827586 L7.03448276,92.4827586 L19.2413793,92.4827586 Z M120.965517,92.4827586 C122.089131,92.4827586 123,93.3936277 123,94.5172414 L123,94.5172414 L123,110.793103 C123,111.916717 122.089131,112.827586 120.965517,112.827586 L120.965517,112.827586 L108.758621,112.827586 L108.758621,92.4827586 Z M13.137931,100.62069 C12.0143172,100.62069 11.1034483,101.531559 11.1034483,102.655172 C11.1034483,103.778786 12.0143172,104.689655 13.137931,104.689655 C14.2615448,104.689655 15.1724138,103.778786 15.1724138,102.655172 C15.1724138,101.531559 14.2615448,100.62069 13.137931,100.62069 Z M114.862069,100.62069 C113.738455,100.62069 112.827586,101.531559 112.827586,102.655172 C112.827586,103.778786 113.738455,104.689655 114.862069,104.689655 C115.985683,104.689655 116.896552,103.778786 116.896552,102.655172 C116.896552,101.531559 115.985683,100.62069 114.862069,100.62069 Z M86.3793103,53.8275862 L86.3793103,61.9655172 L80.2758621,61.9655172 C79.1522484,61.9655172 78.2413793,62.8763863 78.2413793,64 C78.2413793,65.1236137 79.1522484,66.0344828 80.2758621,66.0344828 L86.3793103,66.0344828 L86.3793103,74.1724138 L41.6206897,74.1724138 L41.6206897,66.0344828 L47.7241379,66.0344828 C48.8477516,66.0344828 49.7586207,65.1236137 49.7586207,64 C49.7586207,62.8763863 48.8477516,61.9655172 47.7241379,61.9655172 L41.6206897,61.9655172 L41.6206897,53.8275862 L86.3793103,53.8275862 Z M19.2413793,53.8275862 L19.2413793,74.1724138 L7.03448276,74.1724138 C5.91086896,74.1724138 5,73.2615447 5,72.137931 L5,72.137931 L5,55.862069 C5,54.7384553 5.91086896,53.8275862 7.03448276,53.8275862 L7.03448276,53.8275862 L19.2413793,53.8275862 Z M120.965517,53.8275862 C122.089131,53.8275862 123,54.7384553 123,55.862069 L123,55.862069 L123,72.137931 C123,73.2615447 122.089131,74.1724138 120.965517,74.1724138 L120.965517,74.1724138 L108.758621,74.1724138 L108.758621,53.8275862 Z M13.137931,61.9655172 C12.0143172,61.9655172 11.1034483,62.8763863 11.1034483,64 C11.1034483,65.1236137 12.0143172,66.0344828 13.137931,66.0344828 C14.2615448,66.0344828 15.1724138,65.1236137 15.1724138,64 C15.1724138,62.8763863 14.2615448,61.9655172 13.137931,61.9655172 Z M114.862069,61.9655172 C113.738455,61.9655172 112.827586,62.8763863 112.827586,64 C112.827586,65.1236137 113.738455,66.0344828 114.862069,66.0344828 C115.985683,66.0344828 116.896552,65.1236137 116.896552,64 C116.896552,62.8763863 115.985683,61.9655172 114.862069,61.9655172 Z M86.3793103,15.1724138 L86.3793103,23.3103448 L80.2758621,23.3103448 C79.1522484,23.3103448 78.2413793,24.2212138 78.2413793,25.3448276 C78.2413793,26.4684413 79.1522484,27.3793103 80.2758621,27.3793103 L86.3793103,27.3793103 L86.3793103,35.5172414 L41.6206897,35.5172414 L41.6206897,27.3793103 L47.7241379,27.3793103 C48.8477516,27.3793103 49.7586207,26.4684413 49.7586207,25.3448276 C49.7586207,24.2212138 48.8477516,23.3103448 47.7241379,23.3103448 L41.6206897,23.3103448 L41.6206897,15.1724138 L86.3793103,15.1724138 Z M19.2413793,15.1724138 L19.2413793,35.5172414 L7.03448276,35.5172414 C5.91086896,35.5172414 5,34.6063723 5,33.4827586 L5,33.4827586 L5,17.2068966 C5,16.0832828 5.91086896,15.1724138 7.03448276,15.1724138 L7.03448276,15.1724138 L19.2413793,15.1724138 Z M120.965517,15.1724138 C122.089131,15.1724138 123,16.0832828 123,17.2068966 L123,17.2068966 L123,33.4827586 C123,34.6063723 122.089131,35.5172414 120.965517,35.5172414 L120.965517,35.5172414 L108.758621,35.5172414 L108.758621,15.1724138 Z M13.137931,23.3103448 C12.0143172,23.3103448 11.1034483,24.2212138 11.1034483,25.3448276 C11.1034483,26.4684413 12.0143172,27.3793103 13.137931,27.3793103 C14.2615448,27.3793103 15.1724138,26.4684413 15.1724138,25.3448276 C15.1724138,24.2212138 14.2615448,23.3103448 13.137931,23.3103448 Z M114.862069,23.3103448 C113.738455,23.3103448 112.827586,24.2212138 112.827586,25.3448276 C112.827586,26.4684413 113.738455,27.3793103 114.862069,27.3793103 C115.985683,27.3793103 116.896552,26.4684413 116.896552,25.3448276 C116.896552,24.2212138 115.985683,23.3103448 114.862069,23.3103448 Z" id="Combined-Shape" fill="#FFFFFF" fill-rule="nonzero"></path>
    </g>
</svg>