<?xml version="1.0" encoding="UTF-8"?>
<svg width="128px" height="128px" viewBox="0 0 128 128" version="1.1" xmlns="http://www.w3.org/2000/svg" xmlns:xlink="http://www.w3.org/1999/xlink">
    <!-- Generator: Sketch 62 (91390) - https://sketch.com -->
    <title>icon_industry--Diversified-Telecom_W</title>
    <desc>Created with Sketch.</desc>
    <g id="icon_industry--Diversified-Telecom" stroke="none" stroke-width="1" fill="none" fill-rule="evenodd">
        <path d="M114.999454,29.7360988 C115.002139,30.3345514 114.766794,30.9095007 114.345307,31.3341838 C113.92382,31.7588668 113.350803,31.9984101 112.752592,32 L112.744674,32 C111.502443,32.0006086 110.493957,30.9954953 110.489894,29.7527612 C110.40876,15.8340167 99.1409017,4.57554157 85.2277819,4.51168583 C83.9920672,4.49673456 82.9985799,3.48958804 83,2.2532762 C83.0014231,1.01696435 83.9972239,0.0121071062 85.2329697,0 L85.2384306,0 C101.591457,0.0398804947 114.943753,13.3790865 115,29.7360988 L114.999454,29.7360988 Z M85.2788981,8.00027269 C84.4706278,7.98882051 83.7185039,8.41339129 83.3092608,9.11212465 C82.9000177,9.81085801 82.8967257,10.6760691 83.3006398,11.3779109 C83.7045538,12.0797528 84.453425,12.5100614 85.261759,12.5047891 C94.750992,12.5610329 102.434509,20.2485575 102.507851,29.7598764 C102.513691,30.9986744 103.517164,32 104.753084,32 L104.765054,32 C105.361158,31.997912 105.931908,31.7580449 106.351245,31.3333782 C106.770582,30.9087114 107.004001,30.3341864 107,29.736698 C106.90836,17.7563823 97.2313792,8.07243012 85.2788981,8 L85.2788981,8.00027269 Z M94.5160718,29.7757387 C94.5257692,31.0078635 95.526966,32.0012319 96.7578607,32 L96.7779494,32 C97.372153,31.9952617 97.9401251,31.754363 98.3568531,31.3303254 C98.7735811,30.9062877 99.0049091,30.3338662 99,29.7390527 C98.9069644,22.175056 92.7929009,16.0718371 85.236456,16 L85.2245113,16 C83.9957238,16.0094804 83.0035812,17.0074243 83,18.2375088 C82.9964382,19.4675933 83.9827691,20.4712935 85.2114808,20.4879239 C90.3206024,20.5349966 94.4550579,24.6615161 94.5171577,29.7757387 L94.5160718,29.7757387 Z M32.8005852,22.2273568 C32.6321576,22.4122008 32.4689082,22.6030163 32.3056588,22.7905746 C29.1526834,27.4784467 31.6752817,38.2482569 40.2533699,50.4783619 C46.3472728,47.2109459 53.7987009,47.8065101 59.2914111,52 L73,38.3470575 C61.2514941,27.1416018 48.2038064,20 39.311211,20 L39.2607917,20 C36.455573,20.0084143 34.2804587,20.7562047 32.8016753,22.2273568 L32.8005852,22.2273568 Z M45.6125491,94 C48.7530374,95.3097869 52.0277368,96.2778186 55.3790876,96.8870798 L55.3790876,96.8870798 L63.657,121 L64.4550244,121 C68.8612877,121.002097 72.8816187,123.604457 74.8649536,127.711066 L75,128 L26,128 C27.9342377,123.72734 32.0396322,121.003155 36.5491217,121 L36.342,121.003 Z M58.1244972,56.8748538 L58.1244972,56.875687 C62.0931991,60.8661654 63.1251692,66.9202566 60.7025618,72 C57.4068571,69.4171512 54.2728922,66.6343641 51.3183624,63.6673513 C48.3565134,60.717066 45.5785058,57.5878313 43,54.2972878 C48.0797815,51.8750022 54.1339687,52.9067765 58.1244972,56.8748538 Z M64.1150798,92.9993065 C71.0407343,92.9980995 77.8632262,91.3208434 84,88.1107549 C80.9887924,87.7091699 77.6564805,86.7401099 74.0868307,85.2000163 C65.6371084,81.5520804 56.4504614,75.0103782 48.2178197,66.7769273 C40.0226813,58.5818007 33.4954781,49.4318489 29.8417883,41.0141671 C28.2756866,37.4059243 27.2904742,34.0374829 26.8853299,31 C18.4317751,47.1657816 20.977888,67.375883 34.3005655,80.6960775 C42.2058972,88.6012722 52.9362013,93.0293044 64.115901,93 L64.1150798,92.9993065 Z M76.6563326,42 C87.8795624,53.7665529 95.027888,66.8395919 95,75.7309485 C94.9906855,78.5363638 94.2395736,80.7112966 92.7707507,82.191145 C92.5920697,82.3511507 92.409587,82.5087032 92.2298198,82.6665282 C90.9301736,83.5499669 89.1661741,84 87.0268902,84 C81.4600813,83.9972742 73.3797903,80.9669786 64.5206893,74.7510157 C67.7894882,68.6566714 67.1943119,61.2046326 63,55.7108812 L76.6563326,42 Z M81.8882144,24.9915754 C84.2165373,23.4292252 87.3209004,23.740149 89.2958044,25.7334977 C91.2707085,27.7268464 91.5634384,30.8447427 89.9943126,33.1733806 C88.4251868,35.5020184 85.4333556,36.3896834 82.8552447,35.291515 L82.8552447,35.291515 L80.1557453,38 C79.5607892,37.3540871 78.5088741,36.3202507 77,34.8984907 L77.0002674,34.8984907 L79.7390799,32.1462468 C78.659235,29.5522959 79.5598915,26.5539257 81.8882144,24.9915754 Z M84.9253131,28.1144915 C84.3646825,28.3470197 83.9994328,28.8944856 84,29.5014252 C84.0010838,30.3285703 84.6714295,30.9987904 85.4985748,30.9997185 L85.4985748,31 C86.1055144,31.0005672 86.6529803,30.6353175 86.8855085,30.0746869 C87.1180366,29.5140562 86.9897941,28.8685486 86.5606227,28.4393773 C86.1314514,28.0102059 85.4859438,27.8819634 84.9253131,28.1144915 Z" id="Shape" fill="#FFFFFF" fill-rule="nonzero"></path>
    </g>
</svg>