<?xml version="1.0" encoding="UTF-8"?>
<svg width="128px" height="128px" viewBox="0 0 128 128" version="1.1" xmlns="http://www.w3.org/2000/svg" xmlns:xlink="http://www.w3.org/1999/xlink">
    <!-- Generator: Sketch 62 (91390) - https://sketch.com -->
    <title>icon_industry--Distributors_W</title>
    <desc>Created with Sketch.</desc>
    <g id="icon_industry--Distributors" stroke="none" stroke-width="1" fill="none" fill-rule="evenodd">
        <path d="M-2.84217094e-14,67.7692311 L-2.84217094e-14,93.3846148 C-2.84217094e-14,96.9323658 2.85439038,99.7884611 6.4000602,99.7884611 L9.03341735,99.7884611 C10.9897436,91.2703572 18.6532557,84.8544898 27.7335928,84.8544898 C38.2770849,84.8544898 46.9296053,93.4926431 46.9296053,104.053524 C52.2359653,104.059929 56.793196,104.049465 62.0089118,104.053524 C63.072077,95.6717661 70.280684,89.1070471 78.9299082,89.1070471 C80.4046699,89.1070471 81.8323436,89.3158428 83.2007785,89.6740548 L83.2007785,10.1346152 C83.2007785,8.95203149 82.2493051,8 81.0674236,8 L78.9340688,8 C77.7521873,8 76.8007139,8.95203149 76.8007139,10.1346152 L76.8007139,56.4582717 L61.588076,33.6153844 L61.8672491,33.6153844 C63.049137,33.6153844 64.0006024,32.6633465 64.0006024,31.4807693 L64.0006024,29.3461541 C64.0006024,29.0505082 63.9415813,28.7678757 63.8339242,28.5123197 C63.5109207,27.7456661 62.7536574,27.2115381 61.8672451,27.2115381 L4.26670693,27.2115381 C3.08481707,27.2115381 2.13335326,28.1635769 2.13335326,29.3461541 L2.13335326,31.4807693 C2.13335326,32.6633529 3.08482199,33.6153844 4.26670693,33.6153844 L6.40422634,33.6153844 L6.40214287,61.3653848 C2.85439038,61.3653848 -2.84217094e-14,64.22156 -2.84217094e-14,67.7692311 L-2.84217094e-14,67.7692311 Z M89.6008351,27.2115223 C88.4161477,27.2070306 87.4546359,28.169113 87.4591353,29.3544914 L87.4591353,57.1044918 C87.4638599,58.283353 88.4226626,59.235253 89.6008351,59.2307854 L119.45945,59.2307854 C120.637623,59.235253 121.596425,58.283353 121.60115,57.1044918 L121.60115,29.3544914 C121.605649,28.169113 120.644137,27.2070306 119.45945,27.2115223 L110.930207,27.2115223 L110.930207,35.7458309 C110.927055,37.3308626 109.25962,38.3598322 107.84267,37.651142 L104.53848,35.9959807 L101.213447,37.651142 C99.7964969,38.3598233 98.1290701,37.3308569 98.1259174,35.7458309 L98.1259174,27.2115223 L89.6008351,27.2115223 Z M102.396788,27.2115381 L102.396788,32.2937564 L103.575968,31.7100725 C104.176661,31.4095617 104.883648,31.4095617 105.484317,31.7100725 L106.663497,32.2937564 L106.663497,27.2115381 L102.396788,27.2115381 Z M10.6709329,33.6153844 L56.4546946,33.6153844 L76.7965534,64.1462209 L76.7965534,81.9944413 L58.2838771,57.2879367 L61.238072,54.3319938 C62.6150916,52.9768391 61.6274468,50.634323 59.6963916,50.675632 C59.1421351,50.6918556 58.6161079,50.9241077 58.2297108,51.3218529 L49.6962977,59.8603143 C47.3630064,61.8606541 50.7054699,65.2050456 52.704659,62.8704553 L55.2296826,60.3439377 L73.600688,84.8461557 L46.9337722,84.8419846 L46.9337722,78.3714334 C45.1437476,79.7367536 42.9434393,80.5810932 40.5378786,80.5810932 L17.0501595,80.5810932 C13.5642207,80.5649575 10.6731631,77.6490473 10.6792668,74.1689088 C10.6748837,60.6495603 10.6709329,47.1421094 10.6709329,33.6153844 L10.6709329,33.6153844 Z M17.0668265,40.0233994 C15.886506,40.0280957 14.9331483,40.9874818 14.9376234,42.1663527 L14.9376234,74.1647393 C14.9331322,75.343611 15.8844677,76.3030173 17.0626596,76.3076967 L40.5378786,76.3076967 C44.0466348,76.3076967 46.9296053,73.4084094 46.9296053,69.9080158 C46.9296053,66.4076221 44.0466195,63.5 40.5378786,63.5 L25.5835734,63.5 C24.3647763,63.5 23.4585532,62.5931774 23.4585532,61.3737229 L23.4585532,46.4355838 C23.4585532,42.9247843 20.5777283,40.0233994 17.0668265,40.0233994 Z M89.6008351,63.4999841 C88.4161396,63.4955175 87.4546359,64.4575459 87.4591353,65.6429533 L87.4591353,91.4334485 C89.2831129,92.4981853 90.8987511,93.8809239 92.217526,95.5192436 L119.45945,95.5192436 C120.637631,95.5237536 121.596417,94.5718294 121.60115,93.3929569 L121.60115,65.6429533 C121.605625,64.4575459 120.644137,63.4954812 119.45945,63.4999841 L110.930207,63.4999841 L110.930207,72.0384623 C110.930151,73.6253245 109.261257,74.6575092 107.84267,73.947942 L104.53848,72.2927823 L101.213447,73.947942 C99.794852,74.6579117 98.1259658,73.6252446 98.1259174,72.0384623 L98.1259174,63.4999841 L89.6008351,63.4999841 Z M102.396788,65.634616 L102.396788,70.725174 L103.575968,70.1414901 C104.176661,69.8405598 104.883648,69.8405598 105.484317,70.1414901 L106.663497,70.725174 L106.663497,65.634616 L102.396788,65.634616 Z M27.7252597,89.1153893 C19.4977461,89.1153893 12.80012,95.8170114 12.80012,104.049352 C12.80012,112.281613 19.4977461,119 27.7252597,119 C35.9527564,119 42.6670657,112.281613 42.6670657,104.049352 C42.6670657,95.8170114 35.9527564,89.1153893 27.7252597,89.1153893 Z M78.9299082,93.3762807 C71.8779281,93.3762807 66.1297846,99.1320053 66.1297846,106.188136 C66.1297846,113.244187 71.8779281,119 78.9299082,119 C85.98189,119 91.73419,113.244187 91.73419,106.188136 C91.73419,99.1320053 85.98189,93.3762807 78.9299082,93.3762807 Z M27.7335928,96.3072052 C31.9801685,96.3072052 35.4669982,99.8127695 35.4669982,104.061866 C35.4669982,108.310873 31.9801604,111.799842 27.7335928,111.799842 C23.4870244,111.799842 20.0001866,108.310873 20.0001866,104.061866 C20.0001866,99.8127695 23.4870244,96.3072052 27.7335928,96.3072052 L27.7335928,96.3072052 Z M78.9299082,99.7759559 C82.4396562,99.7759559 85.3424625,102.676287 85.3424625,106.188136 C85.3424625,109.699905 82.4396562,112.583649 78.9299082,112.583649 C75.4201603,112.583649 72.5381775,109.699905 72.5381775,106.188136 C72.5381775,102.676287 75.4201603,99.7759559 78.9299082,99.7759559 Z M94.7300512,99.7759559 C95.5433088,101.760563 96.0008997,103.923252 96.0008997,106.188136 C96.0008997,107.663018 95.7916651,109.088742 95.4342326,110.457399 L125.851186,110.457399 C127.442595,110.465438 128.483624,108.792313 127.772032,107.368017 L123.505331,100.96 C123.145721,100.236315 122.408667,99.7782956 121.601142,99.7759559 L94.7300512,99.7759559 Z M27.7335928,100.576447 C25.7929411,100.576447 24.2710601,102.120026 24.2710601,104.061874 C24.2710601,106.003641 25.7929491,107.526453 27.7335928,107.526453 C29.6742438,107.526453 31.1961167,106.003641 31.1961247,104.061874 C31.1961247,102.120026 29.6742438,100.576447 27.7335928,100.576447 Z M78.9299082,104.045189 C77.7260793,104.045189 76.8048824,104.983608 76.8048824,106.188136 C76.8048824,107.392665 77.7260793,108.314415 78.9299082,108.314415 C80.1337291,108.314415 81.0715922,107.392665 81.0715922,106.188136 C81.0715922,104.983608 80.1337291,104.045189 78.9299082,104.045189 Z" id="path2546" fill="#FFFFFF" fill-rule="nonzero"></path>
    </g>
</svg>