<?xml version="1.0" encoding="UTF-8"?>
<svg width="128px" height="128px" viewBox="0 0 128 128" version="1.1" xmlns="http://www.w3.org/2000/svg" xmlns:xlink="http://www.w3.org/1999/xlink">
    <!-- Generator: Sketch 62 (91390) - https://sketch.com -->
    <title>icon_industry--Machinery_B</title>
    <desc>Created with Sketch.</desc>
    <g id="icon_industry--Machinery" stroke="none" stroke-width="1" fill="none" fill-rule="evenodd">
        <path d="M95.2776852,83.784718 C108.738721,83.784718 119.651047,94.6690428 119.651047,108.095479 L119.651047,108.095479 L119.651047,125.775998 C119.723237,126.381368 119.513111,126.986325 119.080922,127.417404 C118.648733,127.848482 118.042216,128.058067 117.435286,127.986063 L117.435286,127.986063 L14.4024408,127.986063 C6.44819254,127.986062 4.26589794e-07,121.554444 4.26589794e-07,113.620641 C4.26589794e-07,105.686838 6.44819254,99.2552198 14.4024408,99.2552196 L14.4024408,99.2552196 L68.2454117,99.2552196 C71.8312427,89.9207405 80.8241919,83.7649719 90.846165,83.784718 L90.846165,83.784718 Z M66.9159556,103.675349 L14.4024408,103.675349 C8.89565342,103.675349 4.43152024,108.128008 4.43152024,113.620641 C4.43152024,119.113274 8.89565342,123.565933 14.4024408,123.565933 L14.4024408,123.565933 L66.4728036,123.565933 L66.4728036,108.095479 C66.4993771,106.612511 66.6475892,105.1342 66.9159556,103.675349 L66.9159556,103.675349 Z M16.6182009,105.885414 C20.9012577,105.885414 24.3733613,109.348593 24.3733613,113.620641 C24.3733613,117.892689 20.9012577,121.355868 16.6182009,121.355868 C12.3351441,121.355868 8.86304048,117.892689 8.86304048,113.620641 C8.86304048,109.348593 12.3351441,105.885414 16.6182009,105.885414 Z M36.560042,105.885414 C40.8430988,105.885414 44.3152024,109.348593 44.3152024,113.620641 C44.3152024,117.892689 40.8430988,121.355868 36.560042,121.355868 C32.2769852,121.355868 28.8048816,117.892689 28.8048816,113.620641 C28.8048816,109.348593 32.2769852,105.885414 36.560042,105.885414 Z M56.5018831,105.885414 C60.7849399,105.885414 64.2570435,109.348593 64.2570435,113.620641 C64.2570435,117.892689 60.7849399,121.355868 56.5018831,121.355868 C52.2188262,121.355868 48.7467227,117.892689 48.7467227,113.620641 C48.7467227,109.348593 52.2188262,105.885414 56.5018831,105.885414 Z M95.9424132,95.2771029 C91.6131678,94.082547 86.9892373,95.6135417 84.2356091,99.1532544 C81.4819809,102.692967 81.1437008,107.540756 83.379156,111.426821 C85.6146113,115.312886 89.981322,117.46803 94.4347346,116.883184 C98.8881472,116.298338 102.546765,113.089266 103.697574,108.758498 C104.507492,105.943698 104.139975,102.921724 102.678829,100.381701 C101.217683,97.8416786 98.7874855,96.0001676 95.9424132,95.2771029 Z M47.1956906,0.686327221 C50.5452037,-0.432465466 54.2034042,-0.175699964 57.3628212,1.39994814 C60.5222382,2.97559625 62.9231002,5.74057507 64.0354675,9.08457366 L64.0354675,9.08457366 L64.0354675,9.74759311 L100.373933,27.8701249 C101.964299,26.7108086 103.773088,25.8839109 105.691758,25.4390536 C110.247722,24.1295608 115.144538,24.7701155 119.207895,27.2071054 C127.626074,32.1089073 130.496643,42.8705564 125.633599,51.2968123 C124.125026,53.6441141 122.167391,55.671817 119.872623,57.2639874 L119.872623,57.2639874 L112.339038,85.1108046 C107.428748,81.3976344 101.439623,79.3805306 95.2776852,79.3646359 L95.2776852,79.3646359 L90.846165,79.3646359 L86.4146447,79.8066489 L94.3913811,50.1917799 C93.8536699,49.1268492 93.4088755,48.0177215 93.0619251,46.8766826 C92.7903678,45.8667715 92.6415818,44.8279471 92.6187731,43.7825918 L92.6187731,43.7825918 L56.2803071,25.4390536 L55.615579,25.8810665 L54.729275,25.8810665 L52.0703628,38.9204492 C54.2946536,41.5510073 55.1922948,45.0509488 54.507699,48.423728 L54.507699,48.423728 L54.507699,48.6447345 L64.7001955,59.9160652 C65.5447167,60.7754346 65.5447167,62.1507867 64.7001955,63.010156 L64.7001955,63.010156 L48.0819946,77.5965841 C47.3828944,78.3378869 46.2355545,78.4332528 45.4230825,77.8175905 C44.5334261,77.2558916 44.1629412,76.1472936 44.5367784,75.1655127 L44.5367784,75.1655127 L49.4114507,61.6841171 L45.2015065,57.0429809 L41.4347143,57.0429809 C40.2584044,56.7956233 39.1339157,56.3469839 38.1110741,55.716942 L38.1110741,55.716942 L32.3500978,58.5900263 L31.4637937,72.7344414 C31.4080751,73.7736195 30.6953996,74.662174 29.6911856,74.9445062 C28.681073,75.0523203 27.709846,74.5239217 27.2538495,73.6184673 L27.2538495,73.6184673 L17.726081,53.5068772 C17.2560648,52.4079274 17.7467757,51.1353584 18.833961,50.6337929 L18.833961,50.6337929 L32.7932498,44.4456113 L32.7932498,44.0035983 C33.5218996,40.5932666 35.8215988,37.7260314 38.9973781,36.2683713 L38.9973781,36.2683713 L41.8778663,22.3449628 C40.5202635,20.9537646 39.464327,19.2987007 38.7758021,17.4828201 C37.5905698,14.1438441 37.8182,10.4676065 39.406348,7.29947463 C40.994496,4.13134278 43.8064868,1.74396418 47.1956906,0.686327221 Z M116.992134,30.9642157 C110.628736,27.3024606 102.494093,29.4793161 98.8229017,35.8263585 C95.1517102,42.173401 97.3341751,50.2871347 103.697574,53.9488901 C110.07669,57.4875293 118.120223,55.3350551 121.866807,49.0867475 C125.414565,42.7240277 123.256544,34.7011692 116.992134,30.9642157 Z M44.9799305,39.8044751 C42.6446667,39.330727 40.233401,40.1356119 38.654434,41.9159374 C37.0754669,43.6962628 36.5686812,46.1815551 37.3249779,48.4356287 C38.0812747,50.6897022 39.9857545,52.3701096 42.3210183,52.8438577 C45.9818533,53.5248677 49.5199858,51.1721755 50.2977547,47.5397021 C50.6214747,45.8105148 50.2429904,44.0238904 49.2456199,42.5731304 C48.2482494,41.1223704 46.7137534,40.1264023 44.9799305,39.8044751 Z M108.35067,36.0473648 C110.055014,35.5733241 111.878508,35.7965895 113.417302,36.6677143 C114.956096,37.5388391 116.083196,38.9859307 116.548982,40.688501 C117.514159,44.2164725 115.433208,47.8577621 111.897938,48.8269895 C108.362669,49.796217 104.708148,47.7273611 103.729878,44.2029794 C102.751608,40.6785976 104.819024,37.0296456 108.35067,36.0473648 Z M55.3291792,5.3002395 C53.2072991,4.2627757 50.7579047,4.11345514 48.5251466,4.88545044 C46.3022535,5.59104788 44.4597865,7.16306516 43.416552,9.24417121 C42.3733175,11.3252773 42.217943,13.7386726 42.9857463,15.9357747 C43.9752649,18.9361792 46.4944394,21.1821222 49.5943213,21.8275789 C52.6942031,22.4730356 55.9038464,21.4199457 58.0142097,19.0649979 C60.124573,16.7100501 60.8150418,13.411017 59.8255233,10.4106126 C59.0697053,8.17739454 57.4510593,6.33770329 55.3291792,5.3002395 Z M48.8249136,10.8951983 C49.6408602,10.0150443 50.8655925,9.63593186 52.0377658,9.90066907 C53.2099391,10.1654063 54.1514723,11.0337732 54.507699,12.1786644 C54.9600972,13.9382624 54.0022344,15.7535239 52.2919389,16.3777877 C50.5278065,16.8290231 48.7078671,15.8736223 48.0819946,14.1677228 C47.7257679,13.0228316 48.008967,11.7753523 48.8249136,10.8951983 Z" id="Combined-Shape" fill="#000000" fill-rule="nonzero"></path>
    </g>
</svg>