<?xml version="1.0" encoding="UTF-8"?>
<svg width="128px" height="128px" viewBox="0 0 128 128" version="1.1" xmlns="http://www.w3.org/2000/svg" xmlns:xlink="http://www.w3.org/1999/xlink">
    <!-- Generator: Sketch 62 (91390) - https://sketch.com -->
    <title>icon_industry--Health-Care-Equipment_W</title>
    <desc>Created with Sketch.</desc>
    <g id="icon_industry--Health-Care-Equipment" stroke="none" stroke-width="1" fill="none" fill-rule="evenodd">
        <path d="M26.75,0 C32.953125,0 38,5.046875 38,11.25 C38,17.453125 32.953125,22.5 26.75,22.5 L26.75,22.5 L15.5,22.5 L15.5,17.4228515 C8.09667975,22.7294922 5.7646485,31.78125 8.8027345,39.3789062 L8.8027345,39.3789062 L18.111328,54.5107422 C20.1289063,57.8984375 23.828125,60 27.7714845,60 L27.7714845,60 L31.1904298,60 C32.7441405,55.6445312 36.8671875,52.5 41.75,52.5 C46.6328125,52.5 50.7558595,55.6445312 52.3095703,60 L52.3095703,60 L55.7285155,60 C59.671875,60 63.3710938,57.8984375 65.388672,54.5107422 L65.388672,54.5107422 L74.7197265,38.8515625 C77.4277345,31.8789062 75.399414,22.727539 68,17.4228515 L68,17.4228515 L68,22.5 L56.75,22.5 C50.546875,22.5 45.5,17.453125 45.5,11.25 C45.5,5.046875 50.546875,0 56.75,0 L56.75,0 L68,0 L68,8.845703 C80.904297,14.7226562 86.375,29.7910155 81.4248048,42.1621095 L81.4248048,42.1621095 L71.8339845,58.3486328 C68.4726563,63.9921875 62.2978515,67.5 55.7285155,67.5 L55.7285155,67.5 L53,67.5 L53,71.25 C53,76.1328125 49.8554688,80.2558595 45.5,81.8095703 L45.5,81.8095703 L45.5,94.25 C45.5,98.194336 44.8183595,101.980469 43.5742188,105.5 L43.5742188,105.5 L86.75,105.5 C91.7919923,105.5 96.0195313,102.144531 97.444336,97.564453 C85.024414,95.4941405 75.5,84.748047 75.5,71.75 C75.5,57.2773438 87.2773438,45.5 101.75,45.5 L101.75,45.5 C116.222656,45.5 128,57.2773438 128,71.75 C128,85.0566405 118.008789,95.9648437 105.155274,97.6552735 C103.544922,106.369141 95.921875,113 86.75,113 L86.75,113 L39.8017578,113 C33.7373048,122.038086 22.928711,128 11.25,128 C5.046875,128 4.26325641e-14,122.953125 4.26325641e-14,116.75 C4.26325641e-14,110.546875 5.046875,105.5 11.25,105.5 L11.25,105.5 L35.4658203,105.5 C37.0878905,102.086914 38,98.274414 38,94.25 L38,94.25 L38,81.8095703 C33.6445313,80.2558595 30.5,76.1328125 30.5,71.25 L30.5,71.25 L30.5,67.5 L27.7714845,67.5 C21.2021485,67.5 15.0273438,63.9921875 11.6660155,58.3486328 L11.6660155,58.3486328 L2.09765625,42.689453 C0.163086,37.9345703 -0.37207025,33.180664 0.241211,28.75 C1.44921875,20.038086 7.298828,12.580078 15.5,8.845703 L15.5,8.845703 L15.5,0 Z M30.1044923,112.950195 L11.25,112.950195 C9.180664,112.950195 7.5,114.680664 7.5,116.75 C7.5,118.819336 9.180664,120.5 11.25,120.5 C18.3876953,120.5 25.366211,117.585937 30.1044923,112.950195 L30.1044923,112.950195 Z M101.75,60.5 C95.546875,60.5 90.5,65.546875 90.5,71.75 C90.5,77.953125 95.546875,83 101.75,83 C107.953125,83 113,77.953125 113,71.75 C113,65.546875 107.953125,60.5 101.75,60.5 Z M101.75,68 C103.819336,68 105.5,69.680664 105.5,71.75 C105.5,73.819336 103.819336,75.5 101.75,75.5 C99.680664,75.5 98,73.819336 98,71.75 C98,69.680664 99.680664,68 101.75,68 Z" id="Combined-Shape" fill="#FFFFFF" fill-rule="nonzero"></path>
    </g>
</svg>