<?xml version="1.0" encoding="UTF-8"?>
<svg width="128px" height="128px" viewBox="0 0 128 128" version="1.1" xmlns="http://www.w3.org/2000/svg" xmlns:xlink="http://www.w3.org/1999/xlink">
    <!-- Generator: Sketch 62 (91390) - https://sketch.com -->
    <title>icon_industry--Specialty-Retail_W</title>
    <desc>Created with Sketch.</desc>
    <g id="icon_industry--Specialty-Retail" stroke="none" stroke-width="1" fill="none" fill-rule="evenodd">
        <path d="M98.8784804,68.7672734 C103.017791,65.667663 108.269635,64.4870754 113.323973,65.5200007 C113.605111,65.5775765 113.803965,65.6236371 113.849679,65.6351522 C121.193838,67.5437211 126.704039,73.6763144 127.860892,81.2289701 C127.964545,82.0066999 128.010386,82.7911457 127.998033,83.5757579 C127.98544,93.7459253 119.806145,101.987311 109.7126,102 C107.495608,101.994718 105.297353,101.590725 103.221271,100.80703 C101.898924,100.303526 100.639995,99.6449339 99.4704713,98.8448485 L99.4704713,98.8448485 L104.172113,96.2009698 C108.406396,98.19689 113.363424,97.8480148 117.281205,95.2783528 C121.198986,92.7086908 123.521949,88.2826405 123.424389,83.5734549 C123.424389,83.0852125 123.378675,82.5370913 123.378675,82.5370913 C123.151346,80.3965166 122.504158,78.3227894 121.474705,76.4363641 C119.215735,72.728864 115.3774,70.2872344 111.084007,69.8266673 C108.160833,69.5594816 105.22789,70.2197732 102.695565,71.7151521 C101.080347,71.2847498 99.6210479,70.3977291 98.4899149,69.1587885 C98.6077562,69.0170222 98.7377822,68.8860092 98.8784804,68.7672734 Z M84.4101313,26.0000007 C87.1294038,25.9991726 89.8040193,26.696681 92.1814404,28.0266681 L92.1814404,28.0266681 L119.769588,43.4800011 C124.849155,46.3239521 127.998441,51.7193531 127.998441,57.5745463 L127.998441,57.5745463 L127.998441,68.1224249 C128.002391,68.6918601 127.971858,69.2610234 127.906606,69.8266673 C125.550777,66.6517845 122.42666,64.1382762 118.832459,62.5260614 C118.656637,54.9359967 112.436361,48.9104521 104.902395,49.0320911 C97.36843,49.1537302 91.3429473,55.3769877 91.4085636,62.9688317 C91.47418,70.5606758 97.6063161,76.6772535 105.141241,76.6666672 C107.599424,76.6722216 110.011553,75.9948857 112.112563,74.7090914 C114.361152,75.3231052 116.296204,76.7710141 117.529622,78.7624247 C118.195393,80.0000788 118.629287,81.3506787 118.809603,82.746667 L118.809603,82.746667 L92.1814404,97.6703031 C89.8040193,99.0002902 87.1294038,99.6977987 84.4101313,99.6969705 L84.4101313,99.6969705 L6.85703747,99.6969705 C3.07468921,99.6855877 0.0112962873,96.5989399 -6.39488462e-14,92.787879 L-6.39488462e-14,92.787879 L-6.39488462e-14,32.9090922 C0.0112962873,29.0980313 3.07468921,26.0113835 6.85703747,26.0000007 L6.85703747,26.0000007 Z M34.2851874,90.4848487 L11.4283958,90.4848487 C10.16605,90.4848487 9.14271663,91.5159505 9.14271663,92.787879 C9.14271663,94.0598075 10.16605,95.0909092 11.4283958,95.0909092 L11.4283958,95.0909092 L34.2851874,95.0909092 C35.5475331,95.0909092 36.5708665,94.0598075 36.5708665,92.787879 C36.5708665,91.5159505 35.5475331,90.4848487 34.2851874,90.4848487 L34.2851874,90.4848487 Z M63.9990164,37.5151528 C62.7366707,37.5151528 61.7133373,38.5462545 61.7133373,39.818183 L61.7133373,39.818183 L61.7133373,42.1212133 C55.4016086,42.1212133 50.2849415,47.2767221 50.2849415,53.6363646 C50.2849415,59.996007 55.4016086,65.1515159 61.7133373,65.1515159 L61.7133373,65.1515159 L61.7133373,78.9696974 C57.930989,78.9583154 54.8675961,75.8716676 54.8562998,72.0606066 L54.8562998,72.0606066 L54.8562998,69.7575764 C54.8562998,68.4856479 53.8329664,67.4545461 52.5706206,67.4545461 C51.3082749,67.4545461 50.2849415,68.4856479 50.2849415,69.7575764 L50.2849415,69.7575764 L50.2849415,72.0606066 C50.2849415,75.1146146 51.4890011,78.0435384 53.6322411,80.2030482 C55.7754811,82.362558 58.6823383,83.5757579 61.7133373,83.5757579 L61.7133373,83.5757579 L61.7133373,85.8787882 C61.7133373,87.1507167 62.7366707,88.1818184 63.9990164,88.1818184 C65.2613622,88.1818184 66.2846956,87.1507167 66.2846956,85.8787882 L66.2846956,85.8787882 L66.2846956,83.5757579 C72.5964242,83.5757577 77.7130914,78.420249 77.7130914,72.0606066 C77.7130914,65.7009643 72.5964242,60.5454555 66.2846956,60.5454553 L66.2846956,60.5454553 L66.2846956,46.7272738 C70.0670439,46.7386558 73.1304368,49.8253037 73.1417331,53.6363646 L73.1417331,53.6363646 L73.1417331,55.9393948 C73.1417331,57.2113233 74.1650665,58.2424251 75.4274122,58.2424251 C76.689758,58.2424251 77.7130914,57.2113233 77.7130914,55.9393948 L77.7130914,55.9393948 L77.7130914,53.6363646 C77.7130914,47.2767221 72.5964243,42.1212133 66.2846956,42.1212133 L66.2846956,42.1212133 L66.2846956,39.818183 C66.2846956,38.5462545 65.2613622,37.5151528 63.9990164,37.5151528 Z M34.2851874,76.6666672 L11.4283958,76.6666672 C10.16605,76.6666672 9.14271663,77.6977689 9.14271663,78.9696974 C9.14271663,80.2416259 10.16605,81.2727277 11.4283958,81.2727277 L11.4283958,81.2727277 L34.2851874,81.2727277 C35.5475331,81.2727277 36.5708665,80.2416259 36.5708665,78.9696974 C36.5708665,77.6977689 35.5475331,76.6666672 34.2851874,76.6666672 L34.2851874,76.6666672 Z M66.2846956,65.1515159 C70.0717328,65.1515159 73.1417331,68.2448212 73.1417331,72.0606066 C73.1417331,75.8763921 70.0717328,78.9696974 66.2846956,78.9696974 L66.2846956,78.9696974 Z M34.2851874,67.4545461 L11.4283958,67.4545461 C10.16605,67.4545461 9.14271663,68.4856479 9.14271663,69.7575764 C9.14271663,71.0295049 10.16605,72.0606066 11.4283958,72.0606066 L11.4283958,72.0606066 L34.2851874,72.0606066 C35.5475331,72.0606066 36.5708665,71.0295049 36.5708665,69.7575764 C36.5708665,68.4856479 35.5475331,67.4545461 34.2851874,67.4545461 L34.2851874,67.4545461 Z M104.210282,53.7184546 C108.861935,53.2387425 113.123142,56.3728445 114.087389,60.9830311 C112.646678,60.6944463 111.181502,60.5478962 109.7126,60.5454553 C104.882326,60.5525743 100.179205,62.1058374 96.2819489,64.9810916 C96.1023927,64.284355 96.0072253,63.568275 95.9985246,62.8484856 C96.0158916,58.1370678 99.5586287,54.1981667 104.210282,53.7184546 Z M61.7133373,46.7272738 L61.7133373,60.5454553 C57.9263,60.5454553 54.8562998,57.45215 54.8562998,53.6363646 C54.8562998,49.8205791 57.9263,46.7272738 61.7133373,46.7272738 L61.7133373,46.7272738 Z M34.2851874,53.6363646 L11.4283958,53.6363646 C10.16605,53.6363646 9.14271663,54.6674663 9.14271663,55.9393948 C9.14271663,57.2113233 10.16605,58.2424251 11.4283958,58.2424251 L11.4283958,58.2424251 L34.2851874,58.2424251 C35.5475331,58.2424251 36.5708665,57.2113233 36.5708665,55.9393948 C36.5708665,54.6674663 35.5475331,53.6363646 34.2851874,53.6363646 L34.2851874,53.6363646 Z M34.2851874,39.818183 L11.4283958,39.818183 C10.16605,39.818183 9.14271663,40.8492848 9.14271663,42.1212133 C9.14271663,43.3931418 10.16605,44.4242435 11.4283958,44.4242435 L11.4283958,44.4242435 L34.2851874,44.4242435 C35.5475331,44.4242435 36.5708665,43.3931418 36.5708665,42.1212133 C36.5708665,40.8492848 35.5475331,39.818183 34.2851874,39.818183 L34.2851874,39.818183 Z M34.2851874,30.606062 L11.4283958,30.606062 C10.16605,30.606062 9.14271663,31.6371638 9.14271663,32.9090922 C9.14271663,34.1810207 10.16605,35.2121225 11.4283958,35.2121225 L11.4283958,35.2121225 L34.2851874,35.2121225 C35.5475331,35.2121225 36.5708665,34.1810207 36.5708665,32.9090922 C36.5708665,31.6371638 35.5475331,30.606062 34.2851874,30.606062 L34.2851874,30.606062 Z" id="Combined-Shape" fill="#FFFFFF" fill-rule="nonzero"></path>
    </g>
</svg>