<?xml version="1.0" encoding="UTF-8"?>
<svg width="128px" height="128px" viewBox="0 0 128 128" version="1.1" xmlns="http://www.w3.org/2000/svg" xmlns:xlink="http://www.w3.org/1999/xlink">
    <!-- Generator: Sketch 62 (91390) - https://sketch.com -->
    <title>icon_industry--Pro-Services_W</title>
    <desc>Created with Sketch.</desc>
    <g id="icon_industry--Pro-Services" stroke="none" stroke-width="1" fill="none" fill-rule="evenodd">
        <path d="M10.9504599,67.2411655 C10.7669178,67.6532695 10.4302019,67.9713382 10.0042456,68.1357003 C9.57562539,68.3003288 9.11210822,68.2928699 8.69867222,68.1117253 L1.01334443,64.7125994 C0.601240375,64.5314547 0.280774194,64.1960708 0.116145682,63.766385 C-0.0484828304,63.3377648 -0.0383600416,62.8766452 0.14251821,62.4621436 L17.7886701,22.5391967 C18.0713091,21.9033257 18.6970572,21.5226556 19.3518418,21.5226556 C19.5806701,21.5226556 19.8156254,21.5703392 20.0391259,21.6683704 L27.7244537,25.0661644 C28.5851571,25.445769 28.9759501,26.4559168 28.5952799,27.3155546 L10.9504599,67.2411655 Z M24.1473798,28.7897523 C24.2139771,27.3485869 23.1007367,26.1271925 21.6593049,26.0603288 C20.2205369,25.9937315 18.9978106,27.1069719 18.9312133,28.5470718 C18.864616,29.9885036 19.9778564,31.209898 21.4192882,31.2762289 C22.8580562,31.3430926 24.0807825,30.2298522 24.1473798,28.7897523 Z M26.3072633,87.9899521 C24.3279917,86.9294568 23.5805036,84.4576316 24.6372695,82.4786264 L28.4623517,75.326077 C29.522847,73.3468054 31.9946722,72.5979854 33.9774069,73.6560832 C35.8471925,74.6513132 36.6325078,76.9321374 35.7856566,78.8733153 L30.7455734,87.5978273 C29.4778273,88.5869303 27.7335109,88.7515588 26.3072633,87.9899521 L26.3072633,87.9899521 Z M34.79682,97.6681374 C36.7758252,98.7262352 39.2540437,97.9659605 40.3219979,95.973103 L45.8874006,85.1952633 C46.2329074,83.4560083 45.3911176,81.6291113 43.825282,80.7921165 C42.386514,80.0257149 40.6283455,80.1978023 39.3629969,81.2018231 L33.1265598,92.1528158 C32.6150926,93.1064891 32.5082706,94.2072092 32.8263392,95.2541186 C33.143076,96.3010281 33.8431467,97.1566701 34.79682,97.6681374 Z M46.414052,101.495883 C44.9952633,100.736941 44.1635963,99.202539 44.2752133,97.6066015 L49.6597378,87.1806618 C50.913898,85.9443496 52.8878418,85.6401332 54.448616,86.4768616 C56.0155172,87.3111925 56.8599709,89.135692 56.5131322,90.8749469 L51.5748096,100.365861 C50.3709969,101.948212 48.1756837,102.439434 46.414052,101.495883 Z M60.6637419,106.498406 C61.710385,106.181669 62.5662934,105.484262 63.0774943,104.530589 L66.7454069,97.6708012 C67.2544766,96.717128 67.3610323,95.613744 67.0408325,94.564437 C66.7216982,93.5201915 66.0229594,92.6645494 65.0754131,92.1594755 C63.5109095,91.3224807 61.5380312,91.6266972 60.2828054,92.8643413 L55.4374527,102.178106 C55.2640333,103.824125 56.0922373,105.415001 57.5635047,106.200316 C58.5174443,106.709386 59.6168325,106.816208 60.6637419,106.498406 L60.6637419,106.498406 Z M75.9036004,103.410955 C75.3985265,104.3284 74.5263684,105.018081 73.5084953,105.303384 C72.5233881,105.579896 71.5079126,105.460554 70.6485411,104.966668 L68.3751759,103.659763 L70.5038918,99.6788429 C71.0430635,98.6721582 71.3595338,97.5828928 71.4551675,96.4744475 L74.4144849,98.1369823 C76.2528366,99.2076004 76.923871,101.557419 75.9036004,103.410955 L75.9036004,103.410955 Z M100.954839,75.9419688 C101.972712,74.0897648 101.272907,71.7111759 99.391667,70.6378939 L78.5549719,58.7617315 C74.9850905,56.7286493 70.5491779,58.5217149 65.413461,60.6024807 C57.8714506,63.654768 48.4846951,67.4572071 40.458922,57.1279667 C39.9549136,56.4846368 39.7551217,55.647642 39.9098939,54.8396837 C40.063334,54.0327908 40.5620146,53.3329865 41.2732737,52.917153 C47.1554131,49.4841956 52.1238377,45.7371655 56.0394922,41.7799542 C57.1290239,40.6765702 58.2321415,39.6701519 59.331796,38.7614984 C55.3735193,36.8666722 51.327334,37.7335026 47.0837544,38.6445536 C42.8164662,39.560666 38.4045286,40.5079459 34.3495525,38.2700104 L29.4186889,35.9955796 L17.4471592,63.082564 C19.9011363,64.1744932 21.3929157,64.8266139 21.8878668,65.0189469 C24.8458522,66.1662851 25.6500812,69.0336982 26.1149303,71.3987014 C28.6405661,68.8365702 32.6529199,68.1141228 35.9854485,69.8933361 C38.4471592,71.2063684 39.9914089,73.6041374 40.3219979,76.2038293 C42.1603496,75.8505973 44.1081873,76.1108595 45.8309261,77.0330989 C47.8981061,78.1351509 49.3392716,80.0060021 49.9335858,82.1424433 C52.0383267,81.4524953 54.3908096,81.6120624 56.4577232,82.7154464 C58.5222393,83.8174984 59.9623392,85.688616 60.5566535,87.8247908 C62.6637919,87.1348429 65.0162747,87.29441 67.0834547,88.396462 C68.11518,88.9505515 69.000924,89.7020354 69.7047242,90.6029636 L80.5792633,96.683563 C81.4737981,97.179846 82.5156462,97.2943933 83.5146056,97.0064266 C84.5250198,96.7160624 85.3580187,96.0551509 85.8593632,95.1417024 C86.8822976,93.2793757 86.1862227,90.9058481 84.3087118,89.8464183 L68.9055567,81.1344266 C67.8826223,80.5539646 67.5232633,79.2521207 68.1037253,78.2291863 C68.6841873,77.2062518 69.9873632,76.8455609 71.0102976,77.4300187 L89.8578647,88.0344391 C90.7625224,88.5333861 91.8155588,88.647667 92.8195796,88.3535734 C93.8209365,88.0645411 94.6491405,87.4060271 95.1454235,86.5000375 C96.1707555,84.6377107 95.4760125,82.2615193 93.5947721,81.2010239 C88.2619272,78.215334 83.8145598,75.7221977 79.2395921,73.1009282 C78.2166576,72.5140728 77.86236,71.2122289 78.4478835,70.1919584 C79.0334069,69.167692 80.3339188,68.8171238 81.3568533,69.4002497 C85.9195671,72.0140604 90.3552133,74.5018689 95.6805994,77.4851613 C96.5652778,77.9801124 97.6007326,78.0946597 98.5970281,77.8130864 C99.61277,77.5213902 100.452162,76.8578148 100.954839,75.9419688 L100.954839,75.9419688 Z M103.744466,68.8107305 C103.128841,68.0744308 102.377357,67.4348304 101.501469,66.9345515 L80.6647742,55.0583892 C75.3015609,52.0010406 69.4623101,54.3660437 63.8151259,56.6516629 C56.7579438,59.5078876 50.613411,61.9946306 44.8620687,55.7406119 C50.4426556,52.3553382 55.2163496,48.6698439 59.0678044,44.7781644 C60.8081249,43.0202622 62.5572362,41.5348762 64.276512,40.3611655 C72.3587596,34.8170739 77.9606576,37.1066889 83.3816774,39.3219813 C87.356204,40.9466889 91.466589,42.6268054 95.7791634,40.3838085 L99.7587513,38.2526951 L110.51155,65.9856733 L103.744466,68.8107305 Z M126.779138,68.1887118 L118.944366,71.2258148 C118.066081,71.5675921 117.076978,71.1304475 116.736533,70.2508304 L100.957503,29.5537565 C100.619455,28.6765369 101.056599,27.6863684 101.932487,27.345923 L109.767259,24.30882 C109.969448,24.230768 110.176966,24.1932071 110.382884,24.1932071 C111.065107,24.1932071 111.711101,24.607975 111.976158,25.2827388 L127.751459,65.9811446 C128.092171,66.8580978 127.65476,67.8482664 126.779138,68.1887118 L126.779138,68.1887118 Z M110.55657,31.2312092 C110.55657,29.7937732 109.384191,28.6200624 107.945424,28.6200624 C106.506656,28.6200624 105.334277,29.7937732 105.334277,31.2312092 C105.334277,32.6699771 106.506656,33.8423559 107.945424,33.8423559 C109.384191,33.8423559 110.55657,32.6699771 110.55657,31.2312092 Z" id="Shape" fill="#FFFFFF" fill-rule="nonzero"></path>
    </g>
</svg>