<?xml version="1.0" encoding="UTF-8"?>
<svg width="128px" height="128px" viewBox="0 0 128 128" version="1.1" xmlns="http://www.w3.org/2000/svg" xmlns:xlink="http://www.w3.org/1999/xlink">
    <!-- Generator: Sketch 62 (91390) - https://sketch.com -->
    <title>icon_industry--Construction-Engineering_B</title>
    <desc>Created with Sketch.</desc>
    <g id="icon_industry--Construction-Engineering" stroke="none" stroke-width="1" fill="none" fill-rule="evenodd">
        <path d="M48.7509765,7.10542736e-15 C50.8232423,7.10542736e-15 52.5009765,1.6777345 52.5009765,3.75 L52.5009765,3.75 L52.5009765,15.25 L52.5009765,15.25 L124.25,15.25 C126.323242,15.25 128,16.9277345 128,19 L128,19 L128,34 C128,36.0722655 126.323242,37.75 124.25,37.75 L124.25,37.75 L113,37.75 L113,45.25 L124.25,45.25 C126.323242,45.25 128,46.9267578 128,49 L128,49 L128,64 C128,66.0722655 126.323242,67.75 124.25,67.75 L124.25,67.75 L94.2509765,67.75 C92.1777345,67.75 90.5009765,66.0722655 90.5009765,64 L90.5009765,64 L90.5009765,49 C90.5009765,46.9267578 92.1777345,45.25 94.2509765,45.25 L94.2509765,45.25 L105.5,45.25 L105.5,37.75 L60.0009765,37.75 L60.0009765,41.5 C60.0009765,43.5722655 58.3232423,45.25 56.2509765,45.25 L56.2509765,45.25 L52.5009765,45.25 L52.5009765,120.499024 L83.0009765,120.499024 L83.0009765,103.051758 L81.9023438,104.150391 C80.4375,105.615235 78.0634765,105.615235 76.5996095,104.150391 C75.1347655,102.686524 75.1347655,100.3125 76.5996095,98.8476562 C75.2445702,100.202695 95.0998524,80.3474133 98.6018264,76.8454391 L99.0986328,76.3486328 C100.563477,74.883789 102.936524,74.883789 104.401367,76.3486328 L104.401367,76.3486328 L126.901367,98.8476562 C128.366211,100.3125 128.366211,102.686524 126.901367,104.150391 C125.436524,105.616211 123.063476,105.615235 121.598633,104.150391 L121.598633,104.150391 L120.5,103.051758 L120.5,120.499024 L124.25,120.499024 C126.323242,120.499024 128,122.176758 128,124.249024 C128,126.322266 126.323242,127.999024 124.25,127.999024 L124.25,127.999024 L105.5,127.999024 L105.5,108.999024 C105.5,106.926758 103.823242,105.249024 101.75,105.249024 C99.6777345,105.249024 98,106.926758 98,108.999024 L98,108.999024 L98,127.999024 L98,127.999024 L3.7509765,127.999024 C1.678711,127.999024 0.000198129632,126.322266 0.000198129632,124.249024 L0.000198129632,124.249024 L0.000198129632,112.749024 L22.5009765,112.749024 L22.5009765,120.499024 L30.0009765,120.499024 L30.0009765,45.25 L26.2509765,45.25 C24.1777345,45.25 22.5009765,43.5722655 22.5009765,41.5 L22.5009765,41.5 L22.5009765,37.75 L3.7509765,37.75 C2.451172,37.75 1.24609375,37.076172 0.5615235,35.9697265 C-0.123047,34.8642578 -0.185547,33.4833985 0.3964845,32.3222655 L0.3964845,32.3222655 L7.8964845,17.3232423 C8.53417975,16.0517578 9.830078,15.25 11.2509765,15.25 L11.2509765,15.25 L30.0009765,15.25 L30.0009765,3.75 C30.0009765,1.6777345 31.6777345,7.10542736e-15 33.7509765,7.10542736e-15 L33.7509765,7.10542736e-15 Z M45.0009765,110.551758 L37.5009765,118.051758 L37.5009765,120.499024 L45.0009765,120.499024 L45.0009765,110.551758 Z M37.5009765,95.5517578 L37.5009765,107.446289 L43.4482423,101.499024 L37.5009765,95.5517578 Z M22.5009766,90.2490235 L22.5009766,105.249024 L0.0009765625,105.249024 L0.0009765625,90.2490235 L22.5009766,90.2490235 Z M101.75,90.2490235 C99.6796875,90.2490235 98,91.928711 98,93.9990235 C98,96.0703125 99.6796875,97.7490235 101.75,97.7490235 C103.821289,97.7490235 105.5,96.0703125 105.5,93.9990235 C105.5,91.928711 103.821289,90.2490235 101.75,90.2490235 Z M45.0009765,80.5527345 L39.053711,86.4990235 L45.0009765,92.446289 L45.0009765,80.5527345 Z M22.5009766,67.75 L22.5009766,82.7490235 L0.0009765625,82.7490235 L0.0009765625,71.5 C0.0009765625,69.428711 1.6796875,67.75 3.7509765,67.75 L3.7509765,67.75 L22.5009766,67.75 Z M37.5009765,65.5527345 L37.5009765,77.4472655 L43.4482423,71.5 L37.5009765,65.5527345 Z M45.0009765,45.25 L37.5009765,45.25 L37.5009765,54.9472655 L45.0009765,62.4472655 L45.0009765,45.25 Z M22.5009765,22.75 L13.569336,22.75 L9.819336,30.25 L22.5009765,30.25 L22.5009765,22.75 Z M77.6972655,22.75 L60.0009765,22.75 L60.0009765,30.25 L70.1982423,30.25 L77.6972655,22.75 Z M86.75,24.3027345 L80.8027345,30.25 L92.6972655,30.25 L86.75,24.3027345 Z M120.5,22.75 L118.302734,22.75 L110.802734,30.25 L120.5,30.25 L120.5,22.75 Z M107.697266,22.75 L95.8027345,22.75 L101.75,28.6972655 L107.697266,22.75 Z M45.0009765,7.5 L37.5009765,7.5 L37.5009765,15.25 L45.0009765,15.25 L45.0009765,7.5 Z" id="Combined-Shape" fill="#000000" fill-rule="nonzero"></path>
    </g>
</svg>