<?xml version="1.0" encoding="UTF-8"?>
<svg width="128px" height="128px" viewBox="0 0 128 128" version="1.1" xmlns="http://www.w3.org/2000/svg" xmlns:xlink="http://www.w3.org/1999/xlink">
    <!-- Generator: Sketch 62 (91390) - https://sketch.com -->
    <title>icon_industry--Multiline-Retail_B</title>
    <desc>Created with Sketch.</desc>
    <g id="icon_industry--Multiline-Retail" stroke="none" stroke-width="1" fill="none" fill-rule="evenodd">
        <path d="M73.9472141,109.570727 C73.9472141,111.706572 72.2360848,113.438017 70.1252999,113.438017 C68.014515,113.438017 66.3033858,111.706572 66.3033858,109.570727 C66.3033858,107.434881 68.014515,105.703437 70.1252999,105.703437 C72.235087,105.705872 73.944807,107.435891 73.9472141,109.570727 L73.9472141,109.570727 Z M27.5382565,105.703437 C25.4274716,105.703437 23.7163423,107.434881 23.7163423,109.570727 C23.7163423,111.706572 25.4274716,113.438017 27.5382565,113.438017 C29.6490414,113.438017 31.3601706,111.706572 31.3601706,109.570727 C31.3577636,107.435891 29.6480435,105.705872 27.5382565,105.703437 Z M77.0265849,87.0034329 L77.0156652,87.0034329 L74.1874487,92.6165279 L79.5272087,92.6165279 C83.1456972,92.6165279 86.0790616,95.5847187 86.0790616,99.2461677 C86.0790616,102.907617 83.1456972,105.875807 79.5272087,105.875807 L77.4415356,105.875807 C78.0217733,107.016995 78.3214399,108.282957 78.315116,109.566307 C78.3194555,110.911558 77.9929782,112.236769 77.3650973,113.422547 L104.238614,113.422547 L104.238614,87.4343595 C99.7833538,87.0918281 95.2079765,86.9039883 90.6107598,86.9039883 C88.688883,86.9039883 80.4990669,86.9371365 77.0265849,87.0034329 L77.0265849,87.0034329 Z M72.615004,17.0496839 C64.8732032,19.8804722 57.9285915,24.5752926 52.3806985,30.7288406 C52.0171629,31.1388504 51.8150958,31.6696759 51.8128712,32.2205096 L51.8019515,49.3139308 C57.9666637,44.3443573 65.0392227,40.6534512 72.615004,38.452371 L72.615004,17.0496839 Z M81.0737476,97.6812675 C80.6637342,97.2663863 80.1070516,97.0342233 79.5272087,97.0362877 L24.7209597,97.0362877 L23.8037003,93.1358497 L67.6792749,93.1358497 C68.499532,93.1364595 69.2506702,92.6710319 69.6229912,91.9314651 L83.7968328,63.8659901 L85.1399627,61.1920354 C85.4312682,60.6140277 85.4591771,59.9362615 85.216401,59.3357362 L85.0635244,59.0374025 C84.6667227,58.3782832 83.9589748,57.9762337 83.1962463,57.9766601 L15.5592855,57.9766601 L12.2178406,43.7229346 C11.9810301,42.7265671 11.1012387,42.0235084 10.0884884,42.021327 L2.18395095,42.021327 C0.977788144,42.021327 0,43.010724 0,44.231207 C0,45.4516899 0.977788144,46.4410869 2.18395095,46.4410869 L8.36316716,46.4410869 L20.8662863,99.75444 C21.098239,100.749322 21.9745238,101.453188 22.9847187,101.456048 L79.5272087,101.456048 C80.1065174,101.456048 80.6621823,101.223609 81.0718154,100.809113 C81.4814485,100.394616 81.7114496,99.8323541 81.7111597,99.2461677 C81.7131999,98.6594406 81.4837609,98.0961488 81.0737476,97.6812675 Z M72.615004,43.0599706 C65.6522034,45.2553811 59.1873786,48.822832 53.5927913,53.5569002 L72.615004,53.5569002 L72.615004,43.0599706 Z M79.2651346,82.5505248 C83.2399254,82.5063272 88.9727966,82.4842284 90.6107598,82.4842284 C95.2079765,82.4842284 99.772434,82.6610188 104.238614,83.0145996 L104.238614,64.6173493 C99.1223906,63.9464309 93.9679845,63.6179181 88.8090003,63.6339527 L79.2651346,82.5505248 Z M127.432173,30.7288406 C122.216684,24.9660481 115.781016,20.4710543 108.606516,17.5800551 L108.606516,38.4413216 C115.597998,40.4553863 122.169349,43.738887 128,48.131645 L128,32.2205096 C127.997775,31.6696759 127.795708,31.1388504 127.432173,30.7288406 L127.432173,30.7288406 Z M108.606516,83.412378 C115.1848,84.0136585 121.68392,85.3022539 128,87.2575691 L128,72.6392134 C121.865267,69.401063 115.348508,66.9653937 108.606516,65.3908072 L108.606516,83.412378 Z M108.606516,43.0489212 L108.606516,60.8826522 C115.321569,62.3358448 121.834821,64.618056 128,67.678033 L128,53.4353568 C127.648177,53.3652562 127.318426,53.209798 127.039062,52.9823315 C121.576492,48.513051 115.320064,45.1414241 108.606516,43.0489212 L108.606516,43.0489212 Z M76.9829059,41.8666354 L76.9829059,53.5569002 L83.1962463,53.5569002 C85.4754306,53.5684182 87.5881186,54.766739 88.7871608,56.7280779 C89.2443427,57.4841009 89.5452412,58.3260945 89.6716609,59.2031434 C94.5417951,59.2227045 99.4063112,59.5400322 104.238614,60.1533918 L104.238614,41.8445366 C95.267697,39.774573 85.9505327,39.7821273 76.9829059,41.8666354 L76.9829059,41.8666354 Z M108.606516,113.422547 L125.816049,113.422547 C127.020718,113.418907 127.996402,112.431639 128,111.212667 L128,91.8872675 C121.701394,89.8267186 115.197709,88.4742249 108.606516,87.8542367 L108.606516,113.422547 Z M76.9829059,15.6906078 L76.9829059,37.347431 C85.9649698,35.3955067 95.2534699,35.3879756 104.238614,37.3253322 L104.238614,16.0773367 C99.5816682,14.6970041 94.7536044,13.9974973 89.9009757,14.0000247 C85.5408059,13.9956853 81.1985146,14.563951 76.9829059,15.6906078 L76.9829059,15.6906078 Z" id="Shape" fill="#000000" fill-rule="nonzero"></path>
    </g>
</svg>