<?xml version="1.0" encoding="UTF-8"?>
<svg width="128px" height="128px" viewBox="0 0 128 128" version="1.1" xmlns="http://www.w3.org/2000/svg" xmlns:xlink="http://www.w3.org/1999/xlink">
    <!-- Generator: Sketch 62 (91390) - https://sketch.com -->
    <title>icon_industry--Autos_B</title>
    <desc>Created with Sketch.</desc>
    <g id="icon_industry--Autos" stroke="none" stroke-width="1" fill="none" fill-rule="evenodd">
        <path d="M66.4870945,10.9987046 C75.7845341,11.0011125 80.6872932,11.0702212 90.5713341,12.4346409 C95.5375257,13.1196147 99.1250377,15.795579 101.0412,19.3811884 L101.0412,19.3811884 L110.369836,36.8105749 L122.380362,36.8105749 C125.05489,36.8105749 126.64709,39.455487 125.95683,42.0145491 C125.18742,44.8494273 124.324135,46.2486004 120.125512,47.2057372 L120.125512,47.2057372 L116.243489,48.1025962 C117.767584,50.1355984 119.435252,52.3914454 121.161823,54.6363328 C124.318613,58.7571352 128,65.321924 128,71.6200297 L128,71.6200297 L128,92.0432082 C128,96.248034 126.856929,99.7879786 123.455327,101.110435 L123.455327,101.110435 L123.455327,112.870065 C123.455327,115.16427 121.592545,117 119.284315,117 L119.284315,117 L107.452336,117 C105.140425,117 103.281324,115.16427 103.281324,112.870065 L103.281324,112.870065 L103.281324,106.01302 C103.281324,103.212848 102.953681,100.237321 101.825335,97.3074601 C98.5820331,88.9745257 94.3834107,82.9504095 87.0206359,82.9504095 L87.0206359,82.9504095 L40.973842,82.9504095 C33.6110672,82.9504095 29.405082,88.9726991 26.1728239,97.3074601 C25.0334345,100.237321 24.7168352,103.212848 24.7168352,106.01302 L24.7168352,106.01302 L24.7168352,112.870065 C24.7168352,115.16427 22.848531,117 20.5366197,117 L20.5366197,117 L8.71568472,117 C6.40377342,117 4.54467277,115.16427 4.54467277,112.870065 L4.54467277,112.870065 L4.54467277,101.110435 C1.13202663,99.7879786 0,96.2498606 0,92.0432082 L0,92.0432082 L0,71.6200297 C0,65.321924 3.67034326,58.7571352 6.83449575,54.6363328 C8.56106645,52.3914454 10.228735,50.1355984 11.7528293,48.1025962 L11.7528293,48.1025962 L7.87080631,47.2057372 C3.67218395,46.2486004 2.8088986,44.8494273 2.04317002,42.0145491 C1.34186572,39.455487 2.94510994,36.8105749 5.6196379,36.8105749 L5.6196379,36.8105749 L17.6301644,36.8105749 L26.9495966,19.3811884 C28.8768029,15.7937524 32.4606336,13.1196147 37.4286659,12.4346409 C47.309316,11.0702212 52.2133689,11.0011125 61.5024045,10.9987046 Z M87.0095917,88.9526065 C91.9076777,88.9526065 94.1790937,92.5674415 96.9401343,99.7331807 C97.7389954,101.806368 97.5457225,105.518013 95.5890651,106.535427 L95.5890651,106.535427 L32.4017314,106.535427 C30.4395519,105.518013 30.2444384,101.806368 31.0432994,99.7331807 C33.8117028,92.5674415 36.0849595,88.9526065 40.973842,88.9526065 L40.973842,88.9526065 Z M113.289176,83.6828748 C109.407153,83.6828748 106.254044,86.8027021 106.254044,90.6659543 C106.254044,94.5200735 109.407153,97.6490337 113.289176,97.6490337 C117.182243,97.6490337 120.335351,94.5182469 120.335351,90.6659543 C120.335351,86.8027021 117.182243,83.6828748 113.289176,83.6828748 Z M14.6979393,83.6828748 C10.8140756,83.6828748 7.66280792,86.8027021 7.66280792,90.6659543 C7.66280792,94.5200735 10.8159162,97.6490337 14.6979393,97.6490337 C18.5910065,97.6490337 21.7441148,94.5182469 21.7441148,90.6659543 C21.7441148,86.8027021 18.5910065,83.6828748 14.6979393,83.6828748 Z M90.8971369,64.1054105 L37.1028631,64.1054105 C35.6247861,64.1054105 35.2897798,66.1018808 35.9708365,68.0325936 C37.4084183,72.1040778 41.0898057,74.83484 44.8392988,74.83484 L44.8392988,74.83484 L83.1607012,74.83484 C86.9065129,74.83484 90.5879003,72.1040778 92.0254821,68.0325936 C92.699176,66.1018808 92.3715325,64.1054105 90.8971369,64.1054105 L90.8971369,64.1054105 Z M113.305878,59.0518261 L112.95601,59.0621768 C107.612476,59.2338769 100.8829,63.4661017 99.5815298,67.3677124 C98.7642618,69.8025659 100.069314,73.2365678 105.168035,73.2365678 L105.168035,73.2365678 L112.322812,73.2365678 C117.182243,73.2365678 120.795525,67.831668 119.368987,63.1902855 C118.535153,60.4704829 116.482779,59.2631025 113.997843,59.0786162 C113.653633,59.0530438 113.307583,59.0420843 112.95601,59.0621768 Z M15.042149,59.0621768 C14.6868951,59.0439109 14.3353226,59.0530438 13.996635,59.0786162 C11.5153799,59.2612759 9.46300637,60.4686563 8.62917212,63.1902855 C7.19159033,67.831668 10.8140756,73.2365678 15.6753476,73.2365678 L15.6753476,73.2365678 L22.8264427,73.2365678 C27.927005,73.2365678 29.2320568,69.8025659 28.4166295,67.3677124 C27.1115777,63.4661017 20.372798,59.2338769 15.042149,59.0621768 Z M63.9935576,17.3372267 C55.7785415,17.344533 46.8916723,17.6495747 39.3742792,18.2012069 C36.526726,18.4112656 33.9092596,20.0460697 32.1550784,23.0818735 L32.1550784,23.0818735 L22.9221588,42.5186898 C22.9221588,42.5186898 46.4959232,45.0302604 63.9935576,45.0302604 C81.4985548,45.0302604 105.064956,42.5186898 105.064956,42.5186898 L105.064956,42.5186898 L95.8320367,23.0818735 C94.0778556,20.0460697 91.4714333,18.4112656 88.6238801,18.2012069 C81.106487,17.6514013 72.2196178,17.3463596 63.9935576,17.3372267 Z" id="Combined-Shape" fill="#000000" fill-rule="nonzero"></path>
    </g>
</svg>