<?xml version="1.0" encoding="UTF-8"?>
<svg width="128px" height="128px" viewBox="0 0 128 128" version="1.1" xmlns="http://www.w3.org/2000/svg" xmlns:xlink="http://www.w3.org/1999/xlink">
    <!-- Generator: Sketch 62 (91390) - https://sketch.com -->
    <title>icon_industry--Tech-Hardware_B</title>
    <desc>Created with Sketch.</desc>
    <g id="icon_industry--Tech-Hardware" stroke="none" stroke-width="1" fill="none" fill-rule="evenodd">
        <path d="M114.463472,54.7831571 C114.603327,56.0418511 114.703223,57.3005451 114.703223,58.5792183 L114.703223,58.5792183 L114.703223,92.7038107 C114.703223,112.103681 98.9395793,127.867325 79.5397086,127.867325 C69.8098043,127.867325 61.0189257,123.931409 54.6455387,117.578001 C48.2721517,111.204614 44.3362356,102.413736 44.3362356,92.7038107 L44.3362356,92.7038107 L44.3362356,58.5792183 C44.3362356,57.3005451 44.4161527,56.0418511 44.5560076,54.7831571 C52.7275288,65.7118176 65.6740955,72.3249558 79.5197293,72.3249558 C93.3653631,72.3249558 106.31193,65.7317968 114.463472,54.7831571 Z M54.1660362,0 C66.1336187,0 76.3430254,7.55216389 80.3588586,18.1411768 C80.0991281,18.1411768 79.8194183,18.1012182 79.5397086,18.1012182 C77.9014085,18.1012182 76.3030669,18.2410731 74.7047253,18.4208865 C71.0684983,10.6889092 63.2566039,5.33446497 54.2059948,5.33446497 C41.698972,5.33446497 31.5095445,15.5238924 31.5095445,28.0309152 L31.5095445,28.0309152 L31.5095445,99.4368246 C31.5095445,104.49158 27.393815,108.607309 22.3390598,108.607309 C17.2843046,108.607309 13.1685751,104.49158 13.1685751,99.4368246 L13.1685751,99.4368246 L13.1685751,59.2585135 C13.1685751,57.8000268 14.3673313,56.6012707 15.8258179,56.6012707 C17.2843046,56.6012707 18.4830608,57.7800476 18.4830608,59.2585135 L18.4830608,59.2585135 L18.4830608,99.4368246 C18.4830608,101.554627 20.201278,103.272844 22.3190805,103.272844 C24.4368831,103.272844 26.1551003,101.554627 26.1551003,99.4368246 L26.1551003,99.4368246 L26.1551003,28.0309152 C26.1551003,12.5669606 38.7220608,0 54.1660362,0 Z M76.8624864,23.5355795 L76.8624864,29.6692153 C72.7267776,30.8280129 69.6899287,34.6240741 69.6899287,39.1194098 L69.6899287,39.1194098 L69.6899287,51.2668057 C69.6899287,55.7621413 72.7267776,59.5382233 76.8624864,60.7170002 L76.8624864,60.7170002 L76.8624864,66.8905945 C63.6561893,65.9915273 52.3079641,58.3994049 46.1543491,47.4507652 C50.5497884,34.3044058 62.4973916,24.5944808 76.8624864,23.5355795 L76.8624864,23.5355795 Z M82.1769721,23.5555588 C90.8279959,24.1948954 98.619911,27.9509981 104.39392,33.7050277 C108.20996,37.5410475 111.126934,42.1962173 112.86513,47.4507652 C106.731494,58.3994049 95.3832693,65.9915273 82.1769721,66.8905945 L82.1769721,66.8905945 L82.1769721,60.7170002 C86.3126809,59.5781818 89.3495299,55.7621413 89.3495299,51.2668057 L89.3495299,51.2668057 L89.3495299,39.1194098 C89.3495299,34.6240741 86.3126809,30.8080337 82.1769721,29.649236 L82.1769721,29.649236 Z M79.5397086,34.6040949 C82.017138,34.6040949 84.0350442,36.6220011 84.0350442,39.0994305 L84.0350442,39.0994305 L84.0350442,51.2668057 C84.0350442,53.7642144 82.017138,55.7821206 79.5397086,55.7622884 C77.0622791,55.7622884 75.0443729,53.7442351 75.0443729,51.2668057 L75.0443729,51.2668057 L75.0443729,39.0994305 C75.0443729,36.6220011 77.0622791,34.6040949 79.5397086,34.6040949 Z" id="Combined-Shape" fill="#000000" fill-rule="nonzero"></path>
    </g>
</svg>