<?xml version="1.0" encoding="UTF-8"?>
<svg width="128px" height="128px" viewBox="0 0 128 128" version="1.1" xmlns="http://www.w3.org/2000/svg" xmlns:xlink="http://www.w3.org/1999/xlink">
    <!-- Generator: Sketch 62 (91390) - https://sketch.com -->
    <title>icon_industry--Metals-Mining_W</title>
    <desc>Created with Sketch.</desc>
    <g id="icon_industry--Metals-Mining" stroke="none" stroke-width="1" fill="none" fill-rule="evenodd">
        <path d="M117.919643,54.2849513 L102.397321,99.1260875 C107.026786,99.1260875 110.839286,102.93079 110.839286,107.550786 L110.839286,107.550786 L110.839286,112.442546 L117.102679,112.442546 L117.102679,110.811959 C117.102679,109.181373 118.191964,108.094315 119.825893,108.094315 C121.459821,108.094315 122.549107,109.181373 122.549107,110.811959 L122.549107,110.811959 L122.549107,119.508422 C122.549107,121.139009 121.459821,122.226067 119.825893,122.226067 C118.191964,122.226067 117.102679,121.139009 117.102679,119.508422 L117.102679,119.508422 L117.102679,117.877835 L103.214286,117.877835 C103.214286,123.313125 98.8571429,127.661356 93.4107143,127.661356 C87.9642857,127.661356 83.6071429,123.313125 83.6071429,117.877835 L83.6071429,117.877835 L78.4330357,117.877835 C77.34375,117.877835 76.5267857,117.334306 75.9821429,116.247249 L75.9821429,116.247249 L74.0758929,112.442546 C73.8035714,111.355488 72.7142857,110.811959 71.625,110.811959 L71.625,110.811959 L55.8303571,110.811959 C54.7410714,110.811959 53.9241071,111.355488 53.3794643,112.442546 L53.3794643,112.442546 L51.4732143,116.247249 C51.2008929,117.334306 50.1116071,117.877835 49.0223214,117.877835 L49.0223214,117.877835 L43.8482143,117.877835 C43.8482143,123.313125 39.4910714,127.661356 34.0446429,127.661356 C28.5982143,127.661356 24.2410714,123.313125 24.2410714,117.877835 L24.2410714,117.877835 L10.8973214,117.877835 L10.8973214,119.508422 C10.8973214,121.139009 9.80803571,122.226067 8.17410714,122.226067 C6.54017857,122.226067 5.45089286,121.139009 5.45089286,119.508422 L5.45089286,119.508422 L5.45089286,110.811959 C5.45089286,109.181373 6.54017857,108.094315 8.17410714,108.094315 C9.80803571,108.094315 10.8973214,109.181373 10.8973214,110.811959 L10.8973214,110.811959 L10.8973214,112.442546 L17.1607143,112.442546 L17.1607143,107.550786 C17.1607143,102.93079 20.9732143,99.1260875 25.6026786,99.1260875 L25.6026786,99.1260875 L10.0803571,54.2849513 L117.919643,54.2849513 Z M34.0446429,113.529604 C31.59375,113.529604 29.6875,115.431955 29.6875,117.877835 C29.6875,120.323716 31.59375,122.226067 34.0446429,122.226067 C36.4955357,122.226067 38.4017857,120.323716 38.4017857,117.877835 C38.4017857,115.431955 36.4955357,113.529604 34.0446429,113.529604 Z M93.9553571,113.529604 C91.5044643,113.529604 89.5982143,115.431955 89.5982143,117.877835 C89.5982143,120.323716 91.5044643,122.226067 93.9553571,122.226067 C96.40625,122.226067 98.3125,120.323716 98.3125,117.877835 C98.3125,115.431955 96.40625,113.529604 93.9553571,113.529604 Z M86.6026786,62.4378851 C84.96875,62.1661207 83.6071429,63.2531785 83.3348214,64.6120008 L83.3348214,64.6120008 L78.4330357,87.7119801 C78.1607143,89.3425669 79.25,90.7013892 80.6116071,90.9731536 C82.2455357,91.2449181 83.6071429,90.1578603 83.8794643,88.7990379 L83.8794643,88.7990379 L88.78125,65.6990587 C89.0535714,64.0684719 87.9642857,62.7096496 86.6026786,62.4378851 Z M29.9598214,64.0684719 C29.4151786,62.7096496 27.78125,61.8943562 26.4196429,62.4378851 C25.0580357,62.9814141 24.2410714,64.6120008 24.7857143,65.9708231 L24.7857143,65.9708231 L32.6830357,89.0708024 C33.2276786,90.4296247 34.8616071,91.2449181 36.2232143,90.7013892 C37.5848214,90.1578603 38.4017857,88.5272735 37.8571429,87.1684512 L37.8571429,87.1684512 Z M101.580357,62.4378851 C100.21875,61.8943562 98.5848214,62.7096496 98.0401786,64.0684719 L98.0401786,64.0684719 L90.1428571,87.1684512 C89.5982143,88.5272735 90.4151786,90.1578603 91.7767857,90.7013892 C93.4107143,91.2449181 94.7723214,90.4296247 95.3169643,89.0708024 L95.3169643,89.0708024 L103.214286,65.9708231 C103.758929,64.6120008 102.941964,62.9814141 101.580357,62.4378851 Z M44.6651786,64.3402364 C44.3928571,62.7096496 42.7589286,61.8943562 41.3973214,62.1661207 C39.7633929,62.4378851 38.9464286,64.0684719 39.21875,65.4272942 L39.21875,65.4272942 L44.1205357,88.5272735 C44.3928571,90.1578603 46.0267857,90.9731536 47.3883929,90.7013892 C48.75,90.4296247 49.8392857,89.0708024 49.5669643,87.4402156 L49.5669643,87.4402156 Z M71.625,62.1661207 C69.9910714,61.8943562 68.6294643,62.9814141 68.6294643,64.6120008 L68.6294643,64.6120008 L66.9955357,87.7119801 C66.7232143,89.3425669 67.8125,90.7013892 69.4464286,90.7013892 C71.0803571,90.9731536 72.4419643,89.6143313 72.4419643,88.255509 L72.4419643,88.255509 L74.0758929,65.1555298 C74.3482143,63.524943 73.2589286,62.1661207 71.625,62.1661207 Z M56.375,62.1661207 C55.0133929,62.4378851 53.9241071,63.524943 53.9241071,65.1555298 L53.9241071,65.1555298 L55.5580357,88.255509 C55.8303571,89.6143313 56.9196429,90.7013892 58.5535714,90.7013892 C59.9151786,90.7013892 61.0044643,89.3425669 61.0044643,87.7119801 L61.0044643,87.7119801 L59.3705357,64.6120008 C59.0982143,63.2531785 57.7366071,62.1661207 56.375,62.1661207 Z M120.642857,36.3484968 C122.821429,36.3484968 124.727679,38.250848 125,40.6967282 L125,40.6967282 L125,44.5014306 C125,46.9473108 123.09375,48.849662 120.642857,48.849662 L120.642857,48.849662 L7.35714286,48.849662 C4.90625,48.849662 3,46.9473108 3,44.5014306 L3,44.5014306 L3,40.6967282 C3,38.250848 4.90625,36.3484968 7.35714286,36.3484968 L7.35714286,36.3484968 Z M34.5892857,3.46499689 C38.1294643,-1.15499896 44.9375,-1.15499896 48.4776786,3.46499689 L48.4776786,3.46499689 L60.4598214,19.2273357 L51.4732143,30.9132075 L13.6205357,30.9132075 Z M77.34375,6.18264151 C80.8839286,1.56264566 87.6919643,1.56264566 91.2321429,6.18264151 L91.2321429,6.18264151 L110.022321,30.9132075 L58.5535714,30.9132075 Z M59.9151786,2.6497035 C61.8214286,0.203823346 65.6339286,0.203823346 67.5401786,2.6497035 L67.5401786,2.6497035 L70.2633929,6.18264151 L63.4553571,14.6073398 L57.1919643,6.18264151 Z" id="Combined-Shape" fill="#FFFFFF" fill-rule="nonzero"></path>
    </g>
</svg>