<?xml version="1.0" encoding="UTF-8"?>
<svg width="128px" height="128px" viewBox="0 0 128 128" version="1.1" xmlns="http://www.w3.org/2000/svg" xmlns:xlink="http://www.w3.org/1999/xlink">
    <!-- Generator: Sketch 62 (91390) - https://sketch.com -->
    <title>icon_industry-Mortgage-REITS_B</title>
    <desc>Created with Sketch.</desc>
    <g id="icon_industry-Mortgage-REITS" stroke="none" stroke-width="1" fill="none" fill-rule="evenodd">
        <path d="M8.21293103,9.89530123 L8.21293103,113.747692 C8.21610366,116.212194 9.19881712,118.574487 10.9448658,120.314845 C12.6909145,122.055203 15.0572565,123.03105 17.5232759,123.027692 L90.7991379,123.027692 L90.7991379,123.593846 C90.7918299,126.006694 88.8292382,127.957059 86.4149015,127.950853 L7.67105911,127.950853 C6.51037074,127.957943 5.39478915,127.502006 4.57173414,126.684078 C3.74867913,125.866151 3.286822,124.753842 3.286822,123.593846 L3.286822,14.2523077 C3.286822,13.0923116 3.74867913,11.9800028 4.57173414,11.1620754 C5.39478915,10.3441479 6.51037074,9.88821094 7.67105911,9.89530123 L8.21293103,9.89530123 Z M78.3114039,0.0491473809 L78.3114039,13.1692308 C78.322729,16.9398768 81.3857104,19.9899622 85.1586946,19.9876923 L85.1586946,19.9876923 L100.651305,19.9876923 L100.651305,47.4092308 L94.7399754,53.3415385 L74.1981034,73.8461538 L29.4689163,73.8461538 C28.108609,73.8461538 27.0058621,74.9482222 27.0058621,76.3076923 C27.0058621,77.6671625 28.108609,78.7692308 29.4689163,78.7692308 L29.4689163,78.7692308 L69.2718719,78.7692308 L64.4689163,83.5692308 L64.0994581,83.9384615 L63.9763054,84.0615385 L63.409803,84.6523077 L63.3359113,84.9723077 C63.1059816,85.3416488 62.9239019,85.7386691 62.7940394,86.1538462 L62.7940394,86.1538462 L29.4689163,86.1538462 C28.108609,86.1538462 27.0058621,87.2559145 27.0058621,88.6153846 C27.0058621,89.9748548 28.108609,91.0769231 29.4689163,91.0769231 L29.4689163,91.0769231 L61.365468,91.0769231 L60.2324631,95.0892308 L57.3260591,97.9938462 C57.1737542,98.1378736 57.0336985,98.2943102 56.9073399,98.4615385 L56.9073399,98.4615385 L29.4689163,98.4615385 C28.108609,98.4615385 27.0058621,99.5636068 27.0058621,100.923077 C27.0058621,102.282547 28.108609,103.384615 29.4689163,103.384615 L29.4689163,103.384615 L55.1585714,103.384615 C55.2127491,105.280912 55.9878115,107.085344 57.3260591,108.430769 C58.7094829,109.817519 60.5883191,110.59694 62.547734,110.59694 C64.5071489,110.59694 66.3859851,109.817519 67.7694089,108.430769 L67.7694089,108.430769 L70.675936,105.526154 L78.1882512,103.384615 L86.1192857,103.384615 C87.479593,103.384615 88.5823399,102.282547 88.5823399,100.923077 C88.5823399,99.5636068 87.479593,98.4615385 86.1192857,98.4615385 L86.1192857,98.4615385 L85.0355419,98.4615385 L98.4099261,85.0953846 C98.6462764,85.4725302 98.9274707,85.8196741 99.2473645,86.1292308 C99.6708883,86.5515 100.142021,86.9232177 100.651305,87.2369231 L100.651305,87.2369231 L100.651305,113.747692 C100.643997,116.16054 98.6814057,118.110905 96.267069,118.104699 L96.267069,118.104699 L17.5232266,118.104699 C16.3625382,118.111789 15.2469566,117.655852 14.4239016,116.837925 C13.6008466,116.019997 13.1389895,114.907688 13.1389895,113.747692 L13.1389895,113.747692 L13.1389895,4.40615385 C13.1389895,3.24615774 13.6008466,2.13384899 14.4239016,1.31592153 C15.2469566,0.49799408 16.3625382,0.0420570893 17.5232266,0.0491473809 L17.5232266,0.0491473809 L78.3114039,0.0491473809 Z M67.8434483,87.1630769 L68.0158621,87.3353846 L78.4345813,97.7476923 L78.6069951,97.92 C78.4489004,98.1186099 78.2341661,98.2645394 77.9912315,98.3384615 L77.9912315,98.3384615 L68.0842857,101.146486 L64.2847783,104.957932 C63.662617,105.579711 62.7557971,105.822543 61.905909,105.594956 C61.0560208,105.36737 60.3921826,104.70394 60.1644557,103.854575 C59.9367289,103.005209 60.1797106,102.098948 60.8018719,101.477169 L60.8018719,101.477169 L64.6352217,97.6317538 L67.4247291,87.7784615 C67.4985946,87.5356276 67.6446331,87.3209973 67.8434483,87.1630769 L67.8434483,87.1630769 Z M98.1916576,56.8152098 L108.977761,67.5946757 L82.1100197,94.4458831 L71.3239163,83.6664172 L98.1916576,56.8152098 Z M109.937118,45.0953846 C111.859841,43.1738454 114.66227,42.4233989 117.288757,43.1267311 C119.915245,43.8300632 121.966766,45.8803212 122.670531,48.5051926 C123.374296,51.130064 122.623387,53.9307685 120.700665,55.8523077 L120.700665,55.8523077 L119.681552,56.8707938 L119.684261,56.8725908 L122.365296,59.5525908 L123.508719,58.4098462 C123.970505,57.9481151 124.596959,57.688698 125.250185,57.688698 C125.903411,57.688698 126.529865,57.9481151 126.99165,58.4098462 C127.453675,58.8713379 127.713279,59.4974006 127.713279,60.1502247 C127.713279,60.8030488 127.45373,61.4291225 126.991724,61.8906338 L126.991724,61.8906338 L106.224138,82.64544 C105.262353,83.6066534 103.702975,83.6066699 102.74117,82.6454769 C101.779365,81.6842839 101.779348,80.1258657 102.741133,79.1646523 L102.741133,79.1646523 L118.882512,63.0334031 L116.203128,60.3550769 L112.474064,64.0984615 L101.685887,53.3169231 Z M58.5577094,13.44 C57.6170083,12.5783362 56.1732873,12.5783362 55.2325862,13.44 L55.2325862,13.44 L28.877931,37.5630769 C28.1428595,38.2570169 27.8911232,39.3213587 28.2375123,40.2707692 C28.6050074,41.2270528 29.5278052,41.854954 30.5527833,41.8461538 L30.5527833,41.8461538 L34.542931,41.8461538 L34.542931,63.5323077 C34.5469887,64.8900946 35.6473622,65.989791 37.0059852,65.9938462 L37.0059852,65.9938462 L76.7843103,65.9938462 C78.1429333,65.989791 79.2433069,64.8900946 79.2473645,63.5323077 L79.2473645,63.5323077 L79.2473645,41.8461538 L83.2375123,41.8461538 C84.2542535,41.847141 85.1658565,41.2201873 85.5281527,40.2707692 C85.8958099,39.3272517 85.651989,38.2551 84.9123892,37.5630769 L84.9123892,37.5630769 L79.5675616,32.6892308 L79.5675616,19.4461538 C79.5635981,18.0883278 78.4631695,16.9885764 77.1045074,16.9846154 L77.1045074,16.9846154 L70.4296305,16.9846154 C69.0709684,16.9885764 67.9705398,18.0883278 67.9665764,19.4461538 L67.9665764,19.4461538 L67.9665764,22.0553846 Z M56.8921182,18.5877415 L76.9056404,36.9230769 L76.7805419,36.9230769 C75.4202628,36.9231449 74.3175557,38.0251734 74.3174877,39.3846154 L74.3174877,39.3846154 L74.3174877,61.0589046 L39.4655172,61.0589046 L39.4655172,39.3846154 C39.4655172,38.0251452 38.3627703,36.9230769 37.0024631,36.9230769 L37.0024631,36.9230769 L36.8772906,36.9230769 L56.8921182,18.5877415 Z M74.6428571,21.9126154 L74.6428571,28.1698462 L72.8916256,26.5673846 L72.8916256,21.9126154 L74.6428571,21.9126154 Z M83.2375616,2.06769231 L97.8681034,15.0647055 L85.1587438,15.0647055 C84.6519845,15.0695418 84.1641976,14.8722228 83.8035433,14.5164113 C83.4428889,14.1605999 83.2391711,13.6756997 83.2375616,13.1692308 L83.2375616,2.06769231 Z" id="Combined-Shape" fill="#000000" fill-rule="nonzero"></path>
    </g>
</svg>