<?xml version="1.0" encoding="UTF-8"?>
<svg width="128px" height="128px" viewBox="0 0 128 128" version="1.1" xmlns="http://www.w3.org/2000/svg" xmlns:xlink="http://www.w3.org/1999/xlink">
    <!-- Generator: Sketch 62 (91390) - https://sketch.com -->
    <title>icon_industry--Equity-REITs_B</title>
    <desc>Created with Sketch.</desc>
    <g id="icon_industry--Equity-REITs" stroke="none" stroke-width="1" fill="none" fill-rule="evenodd">
        <path d="M8.00004002,75.4285714 C12.4183401,75.4285714 16.00008,79.0103113 16.00008,83.4286114 L16.00008,119.99996 C16.00008,124.41826 12.4183401,128 8.00004002,128 C3.58173992,128 -2.16174449e-13,124.41826 -2.16715534e-13,119.99996 L-2.16715534e-13,83.4286114 C-2.1725662e-13,79.0103113 3.58173992,75.4285714 8.00004002,75.4285714 Z M24.6858378,80 C28.9008651,80.0064731 32.9892318,81.4415036 36.2836101,84.0708571 C40.3908698,87.3486012 45.4882792,89.1366339 50.743111,89.1428571 L50.743111,89.1428571 L62.702028,89.1428571 C65.906684,89.1553578 68.873317,90.8365857 70.5306385,93.5794286 L70.5306385,93.5794286 L70.7363539,93.9222857 C71.9833338,96.001668 71.8505998,98.6283441 70.4003522,100.571429 L70.4003522,100.571429 L56.5145684,100.571429 C52.0011681,100.567107 47.5882097,101.903637 43.8356479,104.411429 L43.8356479,104.411429 L42.1602109,105.526857 C41.4807904,105.980074 41.0947696,106.761328 41.1475587,107.576329 C41.2003478,108.39133 41.6839269,109.11626 42.4161364,109.478044 C43.148346,109.839828 44.017946,109.783503 44.6973665,109.330286 L44.6973665,109.330286 L46.3705177,108.214857 C49.3731945,106.20923 52.9036627,105.140072 56.5145684,105.142857 L56.5145684,105.142857 L76.8300986,105.142857 C78.0630856,105.14484 79.2882013,104.946445 80.4575453,104.555429 L80.4575453,104.555429 L122.757186,90.4525714 C124.306284,89.9204562 126.023072,90.3996629 127.072636,91.6571429 C127.111493,91.7234286 127.157208,91.7874286 127.202922,91.8514286 C127.876619,92.7480589 128.140179,93.8875677 127.928608,94.9889519 C127.717036,96.0903362 127.050025,97.051088 126.092059,97.6342857 L126.092059,97.6342857 L83.2461307,123.714286 C81.096969,125.021408 78.6301151,125.713231 76.1146665,125.714286 L76.1146665,125.714286 L20.5715315,125.714286 L20.5715315,80 Z M69.4860619,1.6 C70.2987644,0.99047619 71.4162303,0.99047619 72.2289328,1.6 L72.2289328,1.6 L109.714835,29.7142857 L107.429109,29.7142857 C106.166737,29.7142857 105.143383,30.7376349 105.143383,32 L105.143383,32 L105.143383,91.5062857 L79.0015381,100.219429 C78.3013366,100.452659 77.5681223,100.571429 76.8300986,100.571429 L76.8300986,100.571429 L75.5180921,100.571429 C76.6043226,97.595806 76.2911113,94.2890505 74.6655164,91.5702857 L74.6655164,91.5702857 L74.4598011,91.2297143 C71.9748175,87.0987348 67.5068478,84.5720156 62.6860279,84.5714286 L62.6860279,84.5714286 L50.743111,84.5714286 C46.55956,84.5953224 42.4945696,83.1825073 39.2276248,80.5691429 C38.3865578,79.8976922 37.4990004,79.2866403 36.5716115,78.7405714 L36.5716115,78.7405714 L36.5716115,32 C36.5716115,30.7376349 35.5482573,29.7142857 34.2858858,29.7142857 L34.2858858,29.7142857 L32.0001601,29.7142857 Z M70.8574973,27.4285714 C69.5951259,27.4285714 68.5717716,28.4519206 68.5717716,29.7142857 L68.5717716,29.7142857 L68.5717716,32.1714286 C62.0963106,33.0834286 57.143143,37.7782857 57.143143,43.4285714 C57.143143,49.0788571 62.0963106,53.7714286 68.5717716,54.6857143 L68.5717716,54.6857143 L68.5717716,68.3268571 C64.6380376,67.5611429 61.7145944,64.9005714 61.7145944,61.7142857 C61.7145944,60.4519206 60.6912402,59.4285714 59.4288687,59.4285714 C58.1664973,59.4285714 57.143143,60.4519206 57.143143,61.7142857 C57.143143,67.3645714 62.0963106,72.0571429 68.5717716,72.9714286 L68.5717716,72.9714286 L68.5717716,75.4285714 C68.5717716,76.6909366 69.5951259,77.7142857 70.8574973,77.7142857 C72.1198688,77.7142857 73.143223,76.6909366 73.143223,75.4285714 L73.143223,75.4285714 L73.143223,72.9714286 C79.618684,72.0594286 84.5718516,67.3645714 84.5718516,61.7142857 C84.5718516,56.064 79.618684,51.3714286 73.143223,50.4571429 L73.143223,50.4571429 L73.143223,36.8137143 C77.076957,37.5817143 80.0004002,40.2422857 80.0004002,43.4285714 C80.0004002,44.6909366 81.0237545,45.7142857 82.2861259,45.7142857 C83.5484974,45.7142857 84.5718516,44.6909366 84.5718516,43.4285714 C84.5718516,37.7782857 79.618684,33.0857143 73.143223,32.1714286 L73.143223,32.1714286 L73.143223,29.7142857 C73.143223,28.4519206 72.1198688,27.4285714 70.8574973,27.4285714 Z M73.143223,55.0994286 C77.076957,55.8674286 80.0004002,58.528 80.0004002,61.7142857 C80.0004002,64.9005714 77.076957,67.5611429 73.143223,68.3268571 L73.143223,68.3268571 Z M68.5717716,36.8137143 L68.5717716,50.0411429 C64.6380376,49.2754286 61.7145944,46.6148571 61.7145944,43.4285714 C61.7145944,40.2422857 64.6380376,37.5817143 68.5717716,36.8137143 L68.5717716,36.8137143 Z M93.7147545,-3.99680289e-14 C94.977126,-3.99680289e-14 96.0004802,1.02334914 96.0004802,2.28571429 L96.0004802,2.28571429 L96.0004802,13.7142857 L89.1433031,8.576 L89.1433031,2.28571429 C89.1433031,1.02334914 90.1666573,-3.99680289e-14 91.4290288,-3.99680289e-14 L91.4290288,-3.99680289e-14 Z" id="Combined-Shape" fill="#000000" fill-rule="nonzero"></path>
    </g>
</svg>