<?xml version="1.0" encoding="UTF-8"?>
<svg width="128px" height="128px" viewBox="0 0 128 128" version="1.1" xmlns="http://www.w3.org/2000/svg" xmlns:xlink="http://www.w3.org/1999/xlink">
    <!-- Generator: Sketch 62 (91390) - https://sketch.com -->
    <title>icon_industry--Interactive-Media_W</title>
    <desc>Created with Sketch.</desc>
    <g id="icon_industry--Interactive-Media" stroke="none" stroke-width="1" fill="none" fill-rule="evenodd">
        <path d="M23.1477395,48.96 L23.1477395,78.6057143 L19.5918802,84.8 L23.535237,87.0857143 L34.9322218,67.2914286 C35.532306,66.237905 36.5276202,65.4687772 37.6964656,65.1553626 C38.8653111,64.8419479 40.1106079,65.0102775 41.1549755,65.6228571 C42.2171009,66.205869 42.9862469,67.2093593 43.2748147,68.3885714 C43.5958499,69.5609587 43.4314777,70.8136495 42.8189353,71.8628571 L34.8410459,85.7142857 C34.5018821,86.3234856 34.451728,87.052736 34.7042821,87.7028571 L37.6447042,95.04 C38.6052974,97.4781275 39.1001657,100.075633 39.1035183,102.697143 L39.1035183,105.668571 C39.1050928,109.396109 38.0966268,113.05403 36.1858901,116.251429 L32.5844429,122.262857 C32.3756746,122.61567 32.2654477,123.018324 32.2653273,123.428571 L32.2653273,128 L8.14930743,128 L9.42576973,121.6 C9.46748533,121.366156 9.47516322,121.127482 9.4485637,120.891429 L6.21182,91.68 C5.39841276,84.408326 6.94089682,77.0672313 10.6110562,70.7428571 L23.1477395,48.96 Z M82.4120606,77.7142857 C84.929813,77.7142857 86.9708546,79.760984 86.9708546,82.2857143 L86.9708546,109.714286 C86.9708546,110.976651 87.9913754,112 89.2502515,112 C90.5091277,112 91.5296485,110.976651 91.5296485,109.714286 L91.5296485,100.571429 C91.5296485,98.0466983 93.5706901,96 96.0884424,96 C98.6061948,96 100.647236,98.0466983 100.647236,100.571429 L100.647236,109.714286 C100.647236,110.976651 101.667757,112 102.926633,112 C104.18551,112 105.20603,110.976651 105.20603,109.714286 L105.20603,102.857143 C105.20603,100.332413 107.247072,98.2857143 109.764824,98.2857143 C112.282577,98.2857143 114.323618,100.332413 114.323618,102.857143 L114.323618,109.714286 C114.323618,110.976651 115.344139,112 116.603015,112 C117.861891,112 118.882412,110.976651 118.882412,109.714286 L118.882412,105.142857 C118.882412,102.618127 120.923454,100.571429 123.441206,100.571429 C125.958958,100.571429 128,102.618127 128,105.142857 L128,128 L68.9864125,128 L61.1452869,114.377143 C60.2106933,112.77485 60.335105,110.764925 61.4601231,109.290827 C62.5851413,107.816729 64.4873813,107.171157 66.2739301,107.657143 C67.4480917,107.964005 68.4451616,108.740735 69.0320004,109.805714 L73.5907944,117.714286 C74.1170145,118.605275 75.1653903,119.042533 76.1665129,118.788571 C77.1653025,118.518903 77.8578063,117.608645 77.8532667,116.571429 L77.8532667,82.2857143 C77.8532667,79.760984 79.8943083,77.7142857 82.4120606,77.7142857 Z M73.2944728,91.4285714 L73.2944728,105.142857 L70.9922818,105.142857 C69.9659211,104.260751 68.7602966,103.613369 67.4592165,103.245714 C65.1193898,102.625034 62.629923,102.953504 60.5298497,104.16 C60.0542659,104.448303 59.6043225,104.777137 59.1850055,105.142857 L59.1850055,105.142857 L43.6623122,105.142857 L43.6623122,102.697143 C43.6712878,99.493437 43.0597255,96.3184725 41.8615886,93.3485714 L41.8615886,93.3485714 L41.1093876,91.4285714 L73.2944728,91.4285714 Z M68.7356788,96 L55.059297,96 L55.059297,100.571429 L68.7356788,100.571429 L68.7356788,96 Z M96.0884424,13.7142857 L96.0884424,86.8571429 L91.5296485,86.8571429 L91.5296485,82.2857143 C91.5224129,78.9028223 89.6433667,75.8034888 86.651739,74.24 C86.8525859,73.9088386 86.9626684,73.530367 86.9708546,73.1428571 L86.9708546,73.1428571 L86.9708546,64 C86.9708546,62.7376349 85.9503338,61.7142857 84.6914576,61.7142857 L84.6914576,61.7142857 L75.5738697,61.7142857 C74.3149936,61.7142857 73.2944728,62.7376349 73.2944728,64 L73.2944728,64 L73.2944728,73.1428571 C73.2944728,74.4052223 74.3149936,75.4285714 75.5738697,75.4285714 L75.5738697,75.4285714 L76.4400406,75.4285714 C74.4475622,77.1472602 73.2993866,79.6502119 73.2944728,82.2857143 L73.2944728,82.2857143 L73.2944728,86.8571429 L39.4454278,86.8571429 L46.032885,75.4285714 L48.2211061,75.4285714 C49.4799823,75.4285714 50.5005031,74.4052223 50.5005031,73.1428571 L50.5005031,73.1428571 L50.5005031,64 C50.5005031,62.7376349 49.4799823,61.7142857 48.2211061,61.7142857 L48.2211061,61.7142857 L43.5255484,61.7142857 C43.4995737,61.6860521 43.4686747,61.6628136 43.4343725,61.6457143 C39.072064,59.1296233 33.5017499,60.6334796 30.988865,65.0057143 L30.988865,65.0057143 L27.7065334,70.6971429 L27.7065334,13.7142857 L96.0884424,13.7142857 Z M66.4562819,61.7142857 L57.338694,61.7142857 C56.0798178,61.7142857 55.059297,62.7376349 55.059297,64 L55.059297,64 L55.059297,73.1428571 C55.059297,74.4052223 56.0798178,75.4285714 57.338694,75.4285714 L57.338694,75.4285714 L66.4562819,75.4285714 C67.7151581,75.4285714 68.7356788,74.4052223 68.7356788,73.1428571 L68.7356788,73.1428571 L68.7356788,64 C68.7356788,62.7376349 67.7151581,61.7142857 66.4562819,61.7142857 L66.4562819,61.7142857 Z M64.1768849,66.2857143 L64.1768849,70.8571429 L59.618091,70.8571429 L59.618091,66.2857143 L64.1768849,66.2857143 Z M82.4120606,66.2857143 L82.4120606,70.8571429 L77.8532667,70.8571429 L77.8532667,66.2857143 L82.4120606,66.2857143 Z M48.2211061,43.4285714 L39.1035183,43.4285714 C37.8446421,43.4285714 36.8241213,44.4519206 36.8241213,45.7142857 L36.8241213,45.7142857 L36.8241213,54.8571429 C36.8241213,56.119508 37.8446421,57.1428571 39.1035183,57.1428571 L39.1035183,57.1428571 L48.2211061,57.1428571 C49.4799823,57.1428571 50.5005031,56.119508 50.5005031,54.8571429 L50.5005031,54.8571429 L50.5005031,45.7142857 C50.5005031,44.4519206 49.4799823,43.4285714 48.2211061,43.4285714 L48.2211061,43.4285714 Z M66.4562819,43.4285714 L57.338694,43.4285714 C56.0798178,43.4285714 55.059297,44.4519206 55.059297,45.7142857 L55.059297,45.7142857 L55.059297,54.8571429 C55.059297,56.119508 56.0798178,57.1428571 57.338694,57.1428571 L57.338694,57.1428571 L66.4562819,57.1428571 C67.7151581,57.1428571 68.7356788,56.119508 68.7356788,54.8571429 L68.7356788,54.8571429 L68.7356788,45.7142857 C68.7356788,44.4519206 67.7151581,43.4285714 66.4562819,43.4285714 L66.4562819,43.4285714 Z M84.6914576,43.4285714 L75.5738697,43.4285714 C74.3149936,43.4285714 73.2944728,44.4519206 73.2944728,45.7142857 L73.2944728,45.7142857 L73.2944728,54.8571429 C73.2944728,56.119508 74.3149936,57.1428571 75.5738697,57.1428571 L75.5738697,57.1428571 L84.6914576,57.1428571 C85.9503338,57.1428571 86.9708546,56.119508 86.9708546,54.8571429 L86.9708546,54.8571429 L86.9708546,45.7142857 C86.9708546,44.4519206 85.9503338,43.4285714 84.6914576,43.4285714 L84.6914576,43.4285714 Z M82.4120606,48 L82.4120606,52.5714286 L77.8532667,52.5714286 L77.8532667,48 L82.4120606,48 Z M64.1768849,48 L64.1768849,52.5714286 L59.618091,52.5714286 L59.618091,48 L64.1768849,48 Z M45.9417092,48 L45.9417092,52.5714286 L41.3829152,52.5714286 L41.3829152,48 L45.9417092,48 Z M48.2211061,25.1428571 L39.1035183,25.1428571 C37.8446421,25.1428571 36.8241213,26.1662063 36.8241213,27.4285714 L36.8241213,27.4285714 L36.8241213,36.5714286 C36.8241213,37.8337937 37.8446421,38.8571429 39.1035183,38.8571429 L39.1035183,38.8571429 L48.2211061,38.8571429 C49.4799823,38.8571429 50.5005031,37.8337937 50.5005031,36.5714286 L50.5005031,36.5714286 L50.5005031,27.4285714 C50.5005031,26.1662063 49.4799823,25.1428571 48.2211061,25.1428571 L48.2211061,25.1428571 Z M66.4562819,25.1428571 L57.338694,25.1428571 C56.0798178,25.1428571 55.059297,26.1662063 55.059297,27.4285714 L55.059297,27.4285714 L55.059297,36.5714286 C55.059297,37.8337937 56.0798178,38.8571429 57.338694,38.8571429 L57.338694,38.8571429 L66.4562819,38.8571429 C67.7151581,38.8571429 68.7356788,37.8337937 68.7356788,36.5714286 L68.7356788,36.5714286 L68.7356788,27.4285714 C68.7356788,26.1662063 67.7151581,25.1428571 66.4562819,25.1428571 L66.4562819,25.1428571 Z M84.6914576,25.1428571 L75.5738697,25.1428571 C74.3149936,25.1428571 73.2944728,26.1662063 73.2944728,27.4285714 L73.2944728,27.4285714 L73.2944728,36.5714286 C73.2944728,37.8337937 74.3149936,38.8571429 75.5738697,38.8571429 L75.5738697,38.8571429 L84.6914576,38.8571429 C85.9503338,38.8571429 86.9708546,37.8337937 86.9708546,36.5714286 L86.9708546,36.5714286 L86.9708546,27.4285714 C86.9708546,26.1662063 85.9503338,25.1428571 84.6914576,25.1428571 L84.6914576,25.1428571 Z M64.1768849,29.7142857 L64.1768849,34.2857143 L59.618091,34.2857143 L59.618091,29.7142857 L64.1768849,29.7142857 Z M82.4120606,29.7142857 L82.4120606,34.2857143 L77.8532667,34.2857143 L77.8532667,29.7142857 L82.4120606,29.7142857 Z M45.9417092,29.7142857 L45.9417092,34.2857143 L41.3829152,34.2857143 L41.3829152,29.7142857 L45.9417092,29.7142857 Z M84.6914576,1.19015908e-13 C90.1027466,0.0138915572 94.7635903,3.82920677 95.8605028,9.14285714 L95.8605028,9.14285714 L27.9344731,9.14285714 C29.0313856,3.82920677 33.6922293,0.0138915572 39.1035183,1.19015908e-13 L39.1035183,1.19015908e-13 Z" id="Combined-Shape" fill="#FFFFFF" fill-rule="nonzero"></path>
    </g>
</svg>