<?xml version="1.0" encoding="UTF-8"?>
<svg width="128px" height="128px" viewBox="0 0 128 128" version="1.1" xmlns="http://www.w3.org/2000/svg" xmlns:xlink="http://www.w3.org/1999/xlink">
    <!-- Generator: Sketch 62 (91390) - https://sketch.com -->
    <title>icon_industry--Cap-Markets_W</title>
    <desc>Created with Sketch.</desc>
    <g id="icon_industry--Cap-Markets" stroke="none" stroke-width="1" fill="none" fill-rule="evenodd">
        <path d="M4.99051306,56.0074839 L4.99051306,87.5938065 C4.99051306,92.0820645 8.67807151,95.7548387 13.1855481,95.7548387 L59.0690891,95.7548387 L59.0690891,95.7419355 C59.0690891,81.9259355 66.8013006,69.9083871 78.1912694,63.7465806 C75.6141247,64.0314839 72.960793,64.2645161 70.2590021,64.4449032 C69.1247474,71.2738065 63.1668657,76.4836129 55.9889542,76.4836129 C48.8107835,76.4836129 42.8529018,71.2740645 41.7186471,64.4454194 C26.268736,63.4144516 12.3930988,60.6740645 5.32583988,56.2214194 C5.21337323,56.1507097 5.101684,56.0794839 4.99051306,56.0074839 L4.99051306,56.0074839 Z M106.98584,61.1566452 L106.98584,56.0077419 C106.874669,56.0794839 106.763239,56.1507097 106.651291,56.2211613 C104.686494,57.4590968 102.194347,58.5643871 99.2886128,59.5378065 C101.948682,59.8036129 104.524531,60.3540645 106.98584,61.1566452 Z M104.43461,52.731871 C98.0162367,56.7757419 84.9804714,59.296 70.3424451,60.2820645 C69.4543732,53.1754839 63.3664033,47.672 55.9884359,47.672 C48.607877,47.672 42.5178341,53.1793548 41.6333902,60.2898065 C27.0194638,59.3114839 13.9945824,56.7974194 7.54226205,52.731871 C6.64123318,52.164129 5.78322151,51.5594839 4.99051306,50.9112258 C2.04305769,48.5016774 2.86229374e-17,45.492129 2.86229374e-17,41.5424516 L2.86229374e-17,21.6482581 C2.86229374e-17,19.3450323 1.88627815,17.4668387 4.19858202,17.4668387 L22.6050184,17.4668387 L22.6050184,31.0642581 C22.6050184,36.2268387 26.8318467,40.435871 32.0159371,40.435871 L79.9609347,40.435871 C85.1450251,40.435871 89.3718534,36.2265806 89.3718534,31.0642581 L89.3718534,17.4668387 L107.778031,17.4668387 C110.090334,17.4668387 111.977131,19.3452903 111.977131,21.6482581 L111.977131,41.5424516 C111.977131,45.4929032 109.934073,48.5019355 106.9861,50.9117419 C106.19365,51.5597419 105.335639,52.164129 104.43461,52.731871 Z M26.7512542,17.4668387 L26.7512542,31.0642581 C26.7512542,33.947871 29.1203097,36.3068387 32.0159371,36.3068387 L79.9609347,36.3068387 C82.8565621,36.3068387 85.2256176,33.9476129 85.2256176,31.0642581 L85.2256176,17.4668387 L26.7512542,17.4668387 Z M45.6687141,62.0779355 C45.6687141,56.420129 50.2710359,51.8012903 55.9884359,51.8012903 C61.706095,51.8012903 66.3078985,56.4203871 66.3078985,62.0779355 C66.3078985,67.7535484 61.6876961,72.3545806 55.9884359,72.3545806 C50.2889165,72.3545806 45.6687141,67.7535484 45.6687141,62.0779355 Z M95.6075329,63.483871 C113.497245,63.483871 128,77.9261935 128,95.7419355 C128,113.557677 113.497504,128 95.6075329,128 C77.7178211,128 63.2150657,113.557677 63.2150657,95.7419355 C63.2150657,77.9261935 77.717562,63.483871 95.6075329,63.483871 Z M95.6075329,69.0449032 C88.2049471,69.0449032 81.5028161,72.0332903 76.6514611,76.8642581 C71.8001061,81.6954839 68.7995271,88.3698065 68.7995271,95.7416774 C68.7995271,103.113548 71.8001061,109.787871 76.6514611,114.619097 C81.5028161,119.450323 88.2049471,122.438452 95.6075329,122.438452 C103.010119,122.438452 109.71225,119.450323 114.563605,114.619097 C119.41496,109.787871 122.415539,103.113548 122.415539,95.7416774 C122.415539,88.3698065 119.41496,81.6954839 114.563605,76.8642581 C109.71225,72.0332903 103.010119,69.0449032 95.6075329,69.0449032 Z M111.631957,79.7837419 C115.732843,83.8676129 118.269303,89.5096774 118.269303,95.7416774 C118.269303,101.973677 115.732843,107.616 111.631957,111.699613 C107.53107,115.783484 101.865498,118.309419 95.6075329,118.309419 C89.3493082,118.309419 83.6837361,115.783484 79.5831089,111.699613 C75.4822226,107.615742 72.9457629,101.973677 72.9457629,95.7416774 C72.9457629,89.5096774 75.4822226,83.8676129 79.5831089,79.7837419 C83.6839953,75.699871 89.3495674,73.1739355 95.6075329,73.1739355 C101.865498,73.1739355 107.53107,75.699871 111.631957,79.7837419 Z M104.802329,87.4606452 C103.499115,84.3698065 101.017852,82.5837419 98.2904066,81.8952258 C98.089055,81.8443871 97.8861486,81.7997419 97.6822056,81.7612903 L97.6822056,80.1545806 C97.6822056,79.0144516 96.7539671,78.0900645 95.6090877,78.0900645 C94.4642083,78.0900645 93.5359698,79.0144516 93.5359698,80.1545806 L93.5359698,81.7922581 L93.5346741,81.7925161 C91.9604002,82.108129 90.4822671,82.7698065 89.2915201,83.7339355 C87.4627709,85.2144516 86.3031206,87.3643871 86.4339862,90.0449032 C86.5651109,92.7380645 87.9147106,94.5445161 89.7937329,95.7659355 C91.4320143,96.8309677 93.4442343,97.3819355 95.2996749,97.6854194 C96.791024,97.9292903 98.3829195,98.3145806 99.5928429,99.0420645 C100.560989,99.6242581 101.288653,100.475097 101.443878,101.749935 C101.464609,101.919484 101.475752,102.043097 101.477566,102.122065 C101.501925,103.136258 101.014483,103.909161 100.282932,104.461935 C99.3676505,105.153548 98.0828356,105.561032 96.7977617,105.716387 C96.4481822,105.75871 96.1426564,105.782452 95.8837758,105.788645 C94.3623664,105.824774 92.8611699,105.453935 91.6883035,104.676129 C90.7253402,104.037419 89.9896425,103.103226 89.6823028,101.875871 C89.4094286,100.771355 88.2891676,100.096258 87.1800495,100.367742 C86.0709314,100.639484 85.3930219,101.755097 85.6656369,102.859613 C86.2453324,105.174452 87.6156634,106.924903 89.4047641,108.111484 C90.6279037,108.922839 92.0485077,109.458839 93.5359698,109.719484 L93.5359698,111.329032 C93.5359698,112.469161 94.4642083,113.393548 95.6090877,113.393548 C96.7539671,113.393548 97.6822056,112.469161 97.6822056,111.329032 L97.6822056,109.75871 C99.4894461,109.485161 101.331152,108.828387 102.776893,107.736 C104.51287,106.424258 105.667597,104.545806 105.607476,102.02529 C105.600479,101.737032 105.584154,101.482839 105.557721,101.266065 C105.221099,98.504 103.720421,96.7060645 101.730746,95.5096774 C99.982589,94.4585806 97.8858894,93.9352258 95.96385,93.6209032 C94.576675,93.3940645 93.115386,93.0100645 92.0451389,92.3143226 C91.2151143,91.7747097 90.6198703,90.9935484 90.5641553,89.8510968 C90.5037757,88.6152258 91.0456369,87.6183226 91.8992432,86.9272258 C92.5675646,86.3860645 93.4203935,86.0100645 94.3444858,85.8247742 C95.2934555,85.6343226 96.312393,85.6492903 97.2862401,85.8949677 C98.8320086,86.2851613 100.239137,87.2996129 100.980018,89.0572903 C101.422629,90.1083871 102.637476,90.6030968 103.692952,90.1620645 C104.748428,89.7212903 105.24494,88.5117419 104.802329,87.4606452 L104.802329,87.4606452 Z M77.8486867,13.3378065 L77.8486867,8.73316129 C77.8486867,3.93006452 73.9025068,7.33463469e-15 69.0791388,7.33463469e-15 L42.8987695,7.33463469e-15 C38.0756607,7.33463469e-15 34.1289625,3.93006452 34.1289625,8.73316129 L34.1289625,13.3378065 L41.8922708,13.3378065 L41.8922708,8.73316129 C41.8922708,8.19741935 42.3607954,7.73109677 42.8987695,7.73109677 L69.0791388,7.73109677 C69.6171129,7.73109677 70.0851193,8.19741935 70.0851193,8.73316129 L70.0851193,13.3378065 L77.8486867,13.3378065 Z" id="Shape" fill="#FFFFFF" fill-rule="nonzero"></path>
    </g>
</svg>