<?xml version="1.0" encoding="UTF-8"?>
<svg width="128px" height="128px" viewBox="0 0 128 128" version="1.1" xmlns="http://www.w3.org/2000/svg" xmlns:xlink="http://www.w3.org/1999/xlink">
    <!-- Generator: Sketch 62 (91390) - https://sketch.com -->
    <title>icon_industry--Media_W</title>
    <desc>Created with Sketch.</desc>
    <g id="icon_industry--Media" stroke="none" stroke-width="1" fill="none" fill-rule="evenodd">
        <path d="M121.6,36.6 C125.133014,36.6038799 127.99612,39.466986 128,43 L128,43 L128,111.266667 C127.99612,114.799681 125.133014,117.662787 121.6,117.666667 L121.6,117.666667 L87.4666667,117.666667 C83.9336526,117.662787 81.0705466,114.799681 81.0666667,111.266667 L81.0666667,111.266667 L81.0666667,43 C81.0705466,39.466986 83.9336526,36.6038799 87.4666667,36.6 L87.4666667,36.6 Z M96,102.733333 L91.7333333,102.733333 C90.5551259,102.733333 89.6,103.688459 89.6,104.866667 C89.6,106.044874 90.5551259,107 91.7333333,107 L91.7333333,107 L96,107 C97.1782075,107 98.1333333,106.044874 98.1333333,104.866667 C98.1333333,103.688459 97.1782075,102.733333 96,102.733333 L96,102.733333 Z M117.333333,102.733333 L113.066667,102.733333 C111.888459,102.733333 110.933333,103.688459 110.933333,104.866667 C110.933333,106.044874 111.888459,107 113.066667,107 L113.066667,107 L117.333333,107 C118.511541,107 119.466667,106.044874 119.466667,104.866667 C119.466667,103.688459 118.511541,102.733333 117.333333,102.733333 L117.333333,102.733333 Z M104.533333,79.2666667 C98.642296,79.2666667 93.8666667,84.042296 93.8666667,89.9333333 C93.8736024,95.8214954 98.6451713,100.593064 104.533333,100.6 C110.424371,100.6 115.2,95.8243707 115.2,89.9333333 C115.2,84.042296 110.424371,79.2666667 104.533333,79.2666667 Z M104.533333,83.5333333 C108.067956,83.5333333 110.933333,86.3987109 110.933333,89.9333333 C110.933333,93.4679557 108.067956,96.3333333 104.533333,96.3333333 C100.998711,96.3333333 98.1333333,93.4679557 98.1333333,89.9333333 C98.1333333,86.3987109 100.998711,83.5333333 104.533333,83.5333333 Z M59.7333333,83.5333333 L59.7333333,85.6666667 C59.7436437,89.1970095 62.6029905,92.0563563 66.1333333,92.0666667 L66.1333333,92.0666667 L68.2666667,92.0666667 C69.4448741,92.0666667 70.4,93.0217925 70.4,94.2 C70.4,95.3782075 69.4448741,96.3333333 68.2666667,96.3333333 L68.2666667,96.3333333 L29.8666667,96.3333333 C28.6884592,96.3333333 27.7333333,95.3782075 27.7333333,94.2 C27.7333333,93.0217925 28.6884592,92.0666667 29.8666667,92.0666667 L29.8666667,92.0666667 L32,92.0666667 C35.5303429,92.0563563 38.3896896,89.1970095 38.4,85.6666667 L38.4,85.6666667 L38.4,83.5333333 L59.7333333,83.5333333 Z M76.8,70.7333333 L76.8,79.2666667 L6.4,79.2666667 C2.86965712,79.2563563 0.010310373,76.3970095 7.10542736e-15,72.8666667 L7.10542736e-15,72.8666667 L7.10542736e-15,70.7333333 L76.8,70.7333333 Z M96,72.8666667 L91.7333333,72.8666667 C90.5551259,72.8666667 89.6,73.8217925 89.6,75 C89.6,76.1782075 90.5551259,77.1333333 91.7333333,77.1333333 L91.7333333,77.1333333 L96,77.1333333 C97.1782075,77.1333333 98.1333333,76.1782075 98.1333333,75 C98.1333333,73.8217925 97.1782075,72.8666667 96,72.8666667 L96,72.8666667 Z M117.333333,72.8666667 L113.066667,72.8666667 C111.888459,72.8666667 110.933333,73.8217925 110.933333,75 C110.933333,76.1782075 111.888459,77.1333333 113.066667,77.1333333 L113.066667,77.1333333 L117.333333,77.1333333 C118.511541,77.1333333 119.466667,76.1782075 119.466667,75 C119.466667,73.8217925 118.511541,72.8666667 117.333333,72.8666667 L117.333333,72.8666667 Z M106.666667,64.3333333 L102.4,64.3333333 C101.221793,64.3333333 100.266667,65.2884592 100.266667,66.4666667 C100.266667,67.6448741 101.221793,68.6 102.4,68.6 L102.4,68.6 L106.666667,68.6 C107.844874,68.6 108.8,67.6448741 108.8,66.4666667 C108.8,65.2884592 107.844874,64.3333333 106.666667,64.3333333 L106.666667,64.3333333 Z M96,64.3333333 L91.7333333,64.3333333 C90.5551259,64.3333333 89.6,65.2884592 89.6,66.4666667 C89.6,67.6448741 90.5551259,68.6 91.7333333,68.6 L91.7333333,68.6 L96,68.6 C97.1782075,68.6 98.1333333,67.6448741 98.1333333,66.4666667 C98.1333333,65.2884592 97.1782075,64.3333333 96,64.3333333 L96,64.3333333 Z M117.333333,64.3333333 L113.066667,64.3333333 C111.888459,64.3333333 110.933333,65.2884592 110.933333,66.4666667 C110.933333,67.6448741 111.888459,68.6 113.066667,68.6 L113.066667,68.6 L117.333333,68.6 C118.511541,68.6 119.466667,67.6448741 119.466667,66.4666667 C119.466667,65.2884592 118.511541,64.3333333 117.333333,64.3333333 L117.333333,64.3333333 Z M91.7333333,11 C95.2636762,11.0103104 98.123023,13.8696571 98.1333333,17.4 L98.1333333,17.4 L98.1333333,32.3333333 L87.4666667,32.3333333 C81.5765074,32.3354526 76.8021193,37.1098407 76.8,43 L76.8,43 L76.8,66.4666667 L0,66.4666667 L0,17.4 C0.010310373,13.8696571 2.86965712,11.0103104 6.4,11 L6.4,11 Z M106.666667,55.8 L102.4,55.8 C101.221793,55.8 100.266667,56.7551259 100.266667,57.9333333 C100.266667,59.1115408 101.221793,60.0666667 102.4,60.0666667 L102.4,60.0666667 L106.666667,60.0666667 C107.844874,60.0666667 108.8,59.1115408 108.8,57.9333333 C108.8,56.7551259 107.844874,55.8 106.666667,55.8 L106.666667,55.8 Z M96,55.8 L91.7333333,55.8 C90.5551259,55.8 89.6,56.7551259 89.6,57.9333333 C89.6,59.1115408 90.5551259,60.0666667 91.7333333,60.0666667 L91.7333333,60.0666667 L96,60.0666667 C97.1782075,60.0666667 98.1333333,59.1115408 98.1333333,57.9333333 C98.1333333,56.7551259 97.1782075,55.8 96,55.8 L96,55.8 Z M117.333333,55.8 L113.066667,55.8 C111.888459,55.8 110.933333,56.7551259 110.933333,57.9333333 C110.933333,59.1115408 111.888459,60.0666667 113.066667,60.0666667 L113.066667,60.0666667 L117.333333,60.0666667 C118.511541,60.0666667 119.466667,59.1115408 119.466667,57.9333333 C119.466667,56.7551259 118.511541,55.8 117.333333,55.8 L117.333333,55.8 Z M49.0666667,47.2666667 C46.7102517,47.2666667 44.8,49.1769184 44.8,51.5333333 C44.8,53.8897483 46.7102517,55.8 49.0666667,55.8 C51.4202124,55.7930876 53.3264209,53.8868791 53.3333333,51.5333333 C53.3333333,49.1769184 51.4230816,47.2666667 49.0666667,47.2666667 Z M106.666667,47.2666667 L102.4,47.2666667 C101.221793,47.2666667 100.266667,48.2217925 100.266667,49.4 C100.266667,50.5782075 101.221793,51.5333333 102.4,51.5333333 L102.4,51.5333333 L106.666667,51.5333333 C107.844874,51.5333333 108.8,50.5782075 108.8,49.4 C108.8,48.2217925 107.844874,47.2666667 106.666667,47.2666667 L106.666667,47.2666667 Z M96,47.2666667 L91.7333333,47.2666667 C90.5551259,47.2666667 89.6,48.2217925 89.6,49.4 C89.6,50.5782075 90.5551259,51.5333333 91.7333333,51.5333333 L91.7333333,51.5333333 L96,51.5333333 C97.1782075,51.5333333 98.1333333,50.5782075 98.1333333,49.4 C98.1333333,48.2217925 97.1782075,47.2666667 96,47.2666667 L96,47.2666667 Z M117.333333,47.2666667 L113.066667,47.2666667 C111.888459,47.2666667 110.933333,48.2217925 110.933333,49.4 C110.933333,50.5782075 111.888459,51.5333333 113.066667,51.5333333 L113.066667,51.5333333 L117.333333,51.5333333 C118.511541,51.5333333 119.466667,50.5782075 119.466667,49.4 C119.466667,48.2217925 118.511541,47.2666667 117.333333,47.2666667 L117.333333,47.2666667 Z M58.112,42.4666667 C53.1090108,37.4889389 45.0243225,37.4889389 40.0213333,42.4666667 C39.184806,43.2914119 39.1752548,44.6381394 40,45.4746667 C40.8247452,46.311194 42.1714727,46.3207452 43.008,45.496 C46.4048203,42.2746438 51.728513,42.2746438 55.1253333,45.496 C55.5255103,45.8949917 56.0687027,46.1172656 56.6337867,46.1133112 C57.1988707,46.1092502 57.7388558,45.8792942 58.1333333,45.4746667 C58.5347447,45.075767 58.7586898,44.5320783 58.7547294,43.9661843 C58.7506629,43.4002904 58.5190289,42.8598327 58.112,42.4666667 Z M49.0666667,30.1999703 C43.4047351,30.1999703 37.9764409,32.4572914 33.984,36.472 C33.5845276,36.8705739 33.3600307,37.4116957 33.3600307,37.976 C33.3600307,38.5403043 33.5845276,39.0814261 33.984,39.48 C34.822369,40.3120691 36.1749643,40.3120691 37.0133333,39.48 C40.2035667,36.2710189 44.5417193,34.4666477 49.0666667,34.4666477 C53.591614,34.4666477 57.9297667,36.2710189 61.12,39.48 C61.9612969,40.3049321 63.3080364,40.3049321 64.1493333,39.48 C64.5488057,39.0814261 64.7733026,38.5403043 64.7733026,37.976 C64.7733026,37.4116957 64.5488057,36.8705739 64.1493333,36.472 C60.1568924,32.4572914 54.7285983,30.1999703 49.0666667,30.1999703 Z M70.1866667,30.4133333 C58.5215903,18.7510652 39.611743,18.7510652 27.9466667,30.4133333 C27.4018394,30.9537293 27.1877032,31.7442821 27.3853054,32.4857792 C27.5829077,33.2272763 28.1620571,33.8064257 28.9035541,34.0040279 C29.6450512,34.2016301 30.435604,33.9874939 30.976,33.4426667 C35.7689235,28.6352762 42.2782119,25.933293 49.0666667,25.933293 C55.8551215,25.933293 62.3644098,28.6352762 67.1573333,33.4426667 C67.9986768,34.2674849 69.3453232,34.2674849 70.1866667,33.4426667 C71.0186195,32.6042497 71.0186195,31.2517503 70.1866667,30.4133333 Z" id="Combined-Shape" fill="#FFFFFF" fill-rule="nonzero"></path>
    </g>
</svg>