<?xml version="1.0" encoding="UTF-8"?>
<svg width="128px" height="128px" viewBox="0 0 128 128" version="1.1" xmlns="http://www.w3.org/2000/svg" xmlns:xlink="http://www.w3.org/1999/xlink">
    <!-- Generator: Sketch 62 (91390) - https://sketch.com -->
    <title>icon_industry--Marine</title>
    <desc>Created with Sketch.</desc>
    <g id="icon_industry--Marine" stroke="none" stroke-width="1" fill="none" fill-rule="evenodd">
        <path d="M70.6864706,57.5948551 L71.4031438,89.5702343 C71.625368,101.763417 86.4560581,106.293101 97.5922702,95.8185506 C95.4105838,93.8789518 95.9030882,90.3578256 98.55339,89.1785076 C104.003439,86.7453884 108.445146,82.7536385 111.178505,77.6777436 C113.053522,74.1963418 118.295236,75.1591066 118.736906,79.0846493 C119.678304,87.4488413 118.081067,95.8985511 114.14242,103.391013 C112.303515,106.888967 106.9618,105.843443 106.586796,101.915142 C106.547907,101.517898 106.50624,101.117895 106.461795,100.72341 C96.4783712,117.302827 78.8643226,113.83246 67.8447782,126.284954 C65.816982,128.571866 62.1836157,128.571866 60.1558195,126.284954 C49.1362752,113.83246 31.5222265,117.302827 21.5388026,100.72341 C21.4943578,101.117895 21.4526907,101.517898 21.4138015,101.915142 C21.0387981,105.843443 15.697083,106.888967 13.8581774,103.391013 C9.92480838,95.9095856 8.32757167,87.4709104 9.25813567,79.1177529 C9.69702854,75.1894517 14.9526318,74.210135 16.8332044,77.6970541 C19.5582291,82.7481212 23.9749358,86.7233193 29.3972072,89.1536799 C32.138621,90.3837568 32.560847,93.9829525 30.4083275,95.8185506 C41.7139856,106.453102 56.3807853,101.498587 56.5974539,89.5702343 L57.3141271,57.5948551 L70.6864706,57.5948551 Z M87.7285696,37.8413481 C90.1474805,38.1174878 91.9783304,40.1426044 91.9783304,42.560551 L91.9783304,48.4339683 C91.9783304,51.0557784 89.8380332,53.1813094 87.1980093,53.1813094 L40.8023107,53.1813094 C38.1622867,53.1813094 36.0219895,51.0557784 36.0219895,48.4339683 L36.0219895,42.5602752 C36.0219895,40.1412251 37.8547839,38.117212 40.2748059,37.8410722 C56.2266172,36.0209225 72.1481505,36.0636814 87.7285696,37.8413481 Z M64.0002989,-1.0658141e-14 C75.0865105,-1.0658141e-14 84.0754809,8.92695427 84.0754809,19.9366806 C84.0754809,24.764298 82.3449097,29.1919129 79.4698836,32.640211 C77.8643135,32.5243482 76.2587434,32.4250372 74.6503955,32.3477954 L74.5809504,28.5050119 C74.5476167,26.6981037 73.9781671,25.0153342 73.0253807,23.6056699 C75.6070708,17.2817669 70.9253617,10.3035149 64.0002989,10.3035149 C57.0738471,10.3035149 52.3940825,17.2834221 54.975217,23.6056699 C54.0224306,25.0153342 53.452981,26.6981037 53.4196473,28.5050119 L53.3502023,32.3477954 C51.7418543,32.4250372 50.1362842,32.5243482 48.5307141,32.640211 C45.6529102,29.1919129 43.9251168,24.764298 43.9251168,19.9366806 C43.9251168,8.92695427 52.9140872,-1.0658141e-14 64.0002989,-1.0658141e-14 Z M65.3586445,23.9229133 C67.9642237,23.9229133 70.089243,25.9976853 70.1364656,28.5850124 L70.2031329,32.1712425 C66.2028188,32.0537245 62.0613924,32.0460003 57.7974648,32.1712425 L57.8641321,28.5850124 C57.9113547,25.9974095 60.036374,23.9229133 62.6419532,23.9229133 L65.3586445,23.9229133 Z" id="Combined-Shape" fill="#FFFFFF" fill-rule="nonzero"></path>
    </g>
</svg>