<?xml version="1.0" encoding="UTF-8"?>
<svg width="128px" height="128px" viewBox="0 0 128 128" version="1.1" xmlns="http://www.w3.org/2000/svg" xmlns:xlink="http://www.w3.org/1999/xlink">
    <!-- Generator: Sketch 62 (91390) - https://sketch.com -->
    <title>icon_industry--Software</title>
    <desc>Created with Sketch.</desc>
    <g id="icon_industry--Software" stroke="none" stroke-width="1" fill="none" fill-rule="evenodd">
        <path d="M114.28475,79.9985 L114.28475,123.42725 C114.28475,125.952 112.238,127.99875 109.71325,127.99875 L109.71325,127.99875 L18.28475,127.99875 C15.76,127.99875 13.71325,125.952 13.71325,123.42725 L13.71325,123.42725 L13.71325,79.9985 L114.28475,79.9985 Z M51.87275,89.84125 C50.991,88.95975 49.56525,88.94725 48.6685,89.8135 L48.6685,89.8135 L37.24,101.242 C36.34925,102.13425 36.34925,103.5795 37.24,104.472 L37.24,104.472 L48.6685,115.9005 C49.24225,116.49475 50.092,116.733 50.89125,116.52375 C51.6905,116.3145 52.3145,115.6905 52.52375,114.89125 C52.733,114.092 52.49475,113.24225 51.9005,112.66825 L51.9005,112.66825 L42.088,102.85575 L51.9005,93.0455 C52.76675,92.1485 52.7545,90.72275 51.87275,89.84125 Z M69.41925,89.307 C68.2465,88.838 66.91575,89.4085 66.44675,90.58125 L66.44675,90.58125 L57.304,113.4385 C56.838,114.6095 57.4075,115.9365 58.577,116.4055 C58.8475,116.513 59.136,116.569 59.42725,116.570001 C60.3615,116.571 61.20225,116.0035 61.55075,115.13675 L61.55075,115.13675 L70.6935,92.2795 C71.1625,91.10675 70.592,89.776 69.41925,89.307 Z M79.32925,89.8135 C78.43225,88.94725 77.00675,88.9595 76.125,89.84125 C75.2435,90.723 75.231,92.14875 76.09725,93.0455 L76.09725,93.0455 L85.90975,102.85575 L76.09725,112.6705 C75.231,113.5675 75.24325,114.993 76.125,115.87475 C77.00675,116.75625 78.4325,116.76875 79.32925,115.9025 L79.32925,115.9025 L90.75775,104.474 C91.65,103.5815 91.65,102.1345 90.75775,101.242 L90.75775,101.242 Z M116.11325,57.1414988 C116.855,57.14075 117.55025,57.50375 117.97375,58.113 L117.97375,58.113 L127.56675,71.82475 C128.057,72.52025 128.12,73.43075 127.73075,74.18725 C127.34125,74.94375 126.564,75.4215 125.713,75.427 L125.713,75.427 L2.2845,75.427 C1.43325,75.42125 0.65575,74.943 0.26675,74.18575 C-0.122,73.4285 -0.058,72.51775 0.43325,71.8225 L0.43325,71.8225 L10.03325,58.10825 C10.45575,57.50325 11.14675,57.14225 11.88475,57.1414988 L11.88475,57.1414988 Z M63.999,29.713 C70.30775,29.7205 75.42,34.83275 75.4275,41.1415 C75.4275,47.45325 70.31075,52.57 63.999,52.57 C57.68725,52.57 52.5705,47.45325 52.5705,41.1415 C52.5705,34.82975 57.68725,29.713 63.999,29.713 Z M78.959,46.7665 L89.4415,52.57 L75.17625,52.57 C76.845,50.93425 78.136,48.9535 78.959,46.7665 Z M24.62525,29.25575 L48.335,37.87975 C47.2463182,43.1000966 48.8377791,48.5105005 52.5587026,52.3077179 L52.82175,52.57 L24.49725,52.57 C22.2685,44.952 22.313,36.84875 24.62525,29.25575 Z M90.5555,9.6635 C102.858911,20.0338393 107.957637,36.6235334 103.637372,52.0919606 L103.50075,52.57 L98.87675,52.57 L79.951,42.08775 C79.96925,41.77475 79.999,41.4615 79.999,41.1415 C79.989,32.309 72.8315,25.1515 63.999,25.1415 C62.2206667,25.1458542 60.4570382,25.4482969 58.7809036,26.0349635 L58.326,26.202 L46.07675,4.16775 C60.68325,-2.969 78.12525,-0.81375 90.5555,9.6635 Z M63.999,34.284 C60.21175,34.284 57.14175,37.35425 57.14175,41.14125 C57.14175,44.9285 60.212,47.9985 63.999,47.9985 C67.786,47.9985 70.856,44.9285 70.85625,41.14125 C70.85625,37.354 67.78625,34.284 63.999,34.284 Z M63.999,38.858 C65.2613849,38.858 66.28475,39.8813651 66.28475,41.14375 C66.28475,42.4061349 65.2613849,43.4295 63.999,43.4295 C62.7366151,43.4295 61.71325,42.4061349 61.71325,41.14375 C61.71325,39.8813651 62.7366151,38.858 63.999,38.858 Z M42.08125,6.3985 L54.33275,28.42375 C52.5035,29.8125 50.993,31.577 49.903,33.5985 L49.903,33.5985 L26.18875,24.963 C29.49475,17.315 35.03425,10.844 42.08125,6.3985 L42.08125,6.3985 Z" id="Combined-Shape" fill="#FFFFFF" fill-rule="nonzero"></path>
    </g>
</svg>